Qty-1,Part References,Value,Package,Mfg Part Num,Mfg Name,VID,Vendor Part Num,Description,Pkg Code,XREF
3,"BTN, IO1, POWER",,1X02_5MM,***PART# '*' NOT FOUND***,*,*,*,*,*,*
1,"JP1",,XBEE-LOCK,888-XBP9B-DMUT-022,Digi International,MS,XBP9B-DMUT-022,XBeePRO 900HP UFL,XBee,REF119
1,"C1",0.01uF,1206,VJ1206Y103KXQCW1BC,Vishay / Vitramon,MS,77-VJ1206Y103KXQCBC,Multilayer Ceramic Capacitors MLCC - SMD/SMT 1206 0.01uF 10volts X7R 10%,*,REF123
4,"U$7, U$8, U$9, U$10",1x5 Header,UNSEEN_ELEMENT,***PART# '*' NOT FOUND***,*,*,*,*,*,*
3,"R1, R2, R3",220,AXIAL-0.3,CRCW1206220RFKEA,Vishay,MS,71-CRCW1206-220-E3,Thick Film Resistors - SMD 1/4watt 220ohms 1%,1206,REF37
1,"U$3",AUTO_BUCK,MODULE_1,***PART# '*' NOT FOUND***,*,*,*,*,*,*
1,"U$4",BOX1554F/G,1554F,HMF1554F/G,Hammond,AZ,HMF1554F/G,Hammond Box,*,REF118
1,"MS1",FEATHERWING_NODIM,FEATHERWING_DIM,2771,Adafruit Industries LLC,DK,1528-1514-ND,DEV BRD FEATHER 32U4 BASIC PROTO,REF117,*
1,"U$2",OPTO_INPUT,MODULE_1,***PART# '*' NOT FOUND***,*,*,*,*,*,*
3,"D0, D1, D2",PWR,LED_5MM,APT3216SGC,Kingbright,MS,604-APT3216SGC,Standard LEDs - SMD GREEN WATER CLEAR,1206,REF20
1,"U$6",UFL to SMA Bulkhead Waterproof,UNSEEN_ELEMENT,***PART# '*' NOT FOUND***,*,*,*,*,*,*
2,"U$1, U$5",XBEE_HEADER,UNSEEN_ELEMENT,366,Adafruit Industries LLC,DK,1528-1392-ND,XBEE HEADER SOCKET 2MM 10PIN 2PK,*,REF122
