<?xml version="1.0" encoding="utf-8"?>
<!DOCTYPE eagle SYSTEM "eagle.dtd">
<eagle version="7.3.0">
<drawing>
<settings>
<setting alwaysvectorfont="no"/>
<setting verticaltext="up"/>
</settings>
<grid distance="0.05" unitdist="inch" unit="mm" style="lines" multiple="1" display="no" altdistance="0.01" altunitdist="inch" altunit="mm"/>
<layers>
<layer number="1" name="Top" color="4" fill="1" visible="yes" active="yes"/>
<layer number="2" name="Route2" color="1" fill="3" visible="no" active="no"/>
<layer number="3" name="Route3" color="4" fill="3" visible="no" active="no"/>
<layer number="4" name="Route4" color="1" fill="4" visible="no" active="no"/>
<layer number="5" name="Route5" color="4" fill="4" visible="no" active="no"/>
<layer number="6" name="Route6" color="1" fill="8" visible="no" active="no"/>
<layer number="7" name="Route7" color="4" fill="8" visible="no" active="no"/>
<layer number="8" name="Route8" color="1" fill="2" visible="no" active="no"/>
<layer number="9" name="Route9" color="4" fill="2" visible="no" active="no"/>
<layer number="10" name="Route10" color="1" fill="7" visible="no" active="no"/>
<layer number="11" name="Route11" color="4" fill="7" visible="no" active="no"/>
<layer number="12" name="Route12" color="1" fill="5" visible="no" active="no"/>
<layer number="13" name="Route13" color="4" fill="5" visible="no" active="no"/>
<layer number="14" name="Route14" color="1" fill="6" visible="no" active="no"/>
<layer number="15" name="Route15" color="4" fill="6" visible="no" active="no"/>
<layer number="16" name="Bottom" color="1" fill="1" visible="yes" active="yes"/>
<layer number="17" name="Pads" color="2" fill="1" visible="yes" active="yes"/>
<layer number="18" name="Vias" color="2" fill="1" visible="yes" active="yes"/>
<layer number="19" name="Unrouted" color="6" fill="1" visible="yes" active="yes"/>
<layer number="20" name="Dimension" color="15" fill="1" visible="yes" active="yes"/>
<layer number="21" name="tPlace" color="7" fill="1" visible="yes" active="yes"/>
<layer number="22" name="bPlace" color="7" fill="1" visible="yes" active="yes"/>
<layer number="23" name="tOrigins" color="15" fill="1" visible="yes" active="yes"/>
<layer number="24" name="bOrigins" color="15" fill="1" visible="yes" active="yes"/>
<layer number="25" name="tNames" color="7" fill="1" visible="yes" active="yes"/>
<layer number="26" name="bNames" color="7" fill="1" visible="yes" active="yes"/>
<layer number="27" name="tValues" color="7" fill="1" visible="yes" active="yes"/>
<layer number="28" name="bValues" color="7" fill="1" visible="yes" active="yes"/>
<layer number="29" name="tStop" color="7" fill="3" visible="yes" active="yes"/>
<layer number="30" name="bStop" color="7" fill="6" visible="yes" active="yes"/>
<layer number="31" name="tCream" color="7" fill="4" visible="yes" active="yes"/>
<layer number="32" name="bCream" color="7" fill="5" visible="yes" active="yes"/>
<layer number="33" name="tFinish" color="6" fill="3" visible="yes" active="yes"/>
<layer number="34" name="bFinish" color="6" fill="6" visible="yes" active="yes"/>
<layer number="35" name="tGlue" color="7" fill="4" visible="yes" active="yes"/>
<layer number="36" name="bGlue" color="7" fill="5" visible="yes" active="yes"/>
<layer number="37" name="tTest" color="7" fill="1" visible="yes" active="yes"/>
<layer number="38" name="bTest" color="7" fill="1" visible="yes" active="yes"/>
<layer number="39" name="tKeepout" color="4" fill="11" visible="yes" active="yes"/>
<layer number="40" name="bKeepout" color="1" fill="11" visible="yes" active="yes"/>
<layer number="41" name="tRestrict" color="4" fill="10" visible="yes" active="yes"/>
<layer number="42" name="bRestrict" color="1" fill="10" visible="yes" active="yes"/>
<layer number="43" name="vRestrict" color="2" fill="10" visible="yes" active="yes"/>
<layer number="44" name="Drills" color="7" fill="1" visible="yes" active="yes"/>
<layer number="45" name="Holes" color="7" fill="1" visible="yes" active="yes"/>
<layer number="46" name="Milling" color="3" fill="1" visible="yes" active="yes"/>
<layer number="47" name="Measures" color="7" fill="1" visible="yes" active="yes"/>
<layer number="48" name="Document" color="7" fill="1" visible="yes" active="yes"/>
<layer number="49" name="Reference" color="7" fill="1" visible="yes" active="yes"/>
<layer number="50" name="dxf" color="7" fill="1" visible="no" active="no"/>
<layer number="51" name="tDocu" color="7" fill="1" visible="yes" active="yes"/>
<layer number="52" name="bDocu" color="7" fill="1" visible="yes" active="yes"/>
<layer number="53" name="tGND_GNDA" color="7" fill="9" visible="no" active="no"/>
<layer number="54" name="bGND_GNDA" color="1" fill="9" visible="no" active="no"/>
<layer number="56" name="wert" color="7" fill="1" visible="no" active="no"/>
<layer number="57" name="tCAD" color="7" fill="1" visible="no" active="no"/>
<layer number="58" name="b3D" color="7" fill="1" visible="no" active="no"/>
<layer number="59" name="tCarbon" color="7" fill="1" visible="no" active="no"/>
<layer number="60" name="bCarbon" color="7" fill="1" visible="no" active="no"/>
<layer number="90" name="Modules" color="5" fill="1" visible="no" active="no"/>
<layer number="91" name="Nets" color="2" fill="1" visible="no" active="no"/>
<layer number="92" name="Busses" color="1" fill="1" visible="no" active="no"/>
<layer number="93" name="Pins" color="2" fill="1" visible="no" active="no"/>
<layer number="94" name="Symbols" color="4" fill="1" visible="no" active="no"/>
<layer number="95" name="Names" color="7" fill="1" visible="no" active="no"/>
<layer number="96" name="Values" color="7" fill="1" visible="no" active="no"/>
<layer number="97" name="Info" color="7" fill="1" visible="no" active="no"/>
<layer number="98" name="Guide" color="6" fill="1" visible="no" active="no"/>
<layer number="99" name="SpiceOrder" color="7" fill="1" visible="no" active="no"/>
<layer number="100" name="Muster" color="7" fill="1" visible="no" active="no"/>
<layer number="101" name="Patch_Top" color="12" fill="4" visible="yes" active="yes"/>
<layer number="102" name="Vscore" color="7" fill="1" visible="yes" active="yes"/>
<layer number="103" name="fp3" color="7" fill="1" visible="yes" active="yes"/>
<layer number="104" name="Name" color="7" fill="1" visible="yes" active="yes"/>
<layer number="105" name="Beschreib" color="9" fill="1" visible="yes" active="yes"/>
<layer number="106" name="BGA-Top" color="4" fill="1" visible="yes" active="yes"/>
<layer number="107" name="BD-Top" color="5" fill="1" visible="yes" active="yes"/>
<layer number="108" name="fp8" color="7" fill="1" visible="yes" active="yes"/>
<layer number="109" name="fp9" color="7" fill="1" visible="yes" active="yes"/>
<layer number="110" name="fp0" color="7" fill="1" visible="yes" active="yes"/>
<layer number="111" name="LPC17xx" color="7" fill="1" visible="yes" active="yes"/>
<layer number="112" name="tSilk" color="7" fill="1" visible="yes" active="yes"/>
<layer number="113" name="ReferenceLS" color="7" fill="1" visible="no" active="no"/>
<layer number="114" name="Badge_Outline" color="7" fill="1" visible="yes" active="yes"/>
<layer number="115" name="ReferenceISLANDS" color="7" fill="1" visible="yes" active="yes"/>
<layer number="116" name="Patch_BOT" color="9" fill="4" visible="yes" active="yes"/>
<layer number="118" name="Rect_Pads" color="7" fill="1" visible="no" active="no"/>
<layer number="121" name="_tsilk" color="7" fill="1" visible="yes" active="yes"/>
<layer number="122" name="_bsilk" color="7" fill="1" visible="yes" active="yes"/>
<layer number="123" name="tTestmark" color="7" fill="1" visible="yes" active="yes"/>
<layer number="124" name="bTestmark" color="7" fill="1" visible="yes" active="yes"/>
<layer number="125" name="_tNames" color="7" fill="1" visible="yes" active="yes"/>
<layer number="126" name="_bNames" color="7" fill="1" visible="yes" active="yes"/>
<layer number="127" name="_tValues" color="7" fill="1" visible="yes" active="yes"/>
<layer number="128" name="_bValues" color="7" fill="1" visible="yes" active="yes"/>
<layer number="129" name="Mask" color="7" fill="1" visible="yes" active="yes"/>
<layer number="131" name="tAdjust" color="7" fill="1" visible="yes" active="yes"/>
<layer number="132" name="bAdjust" color="7" fill="1" visible="yes" active="yes"/>
<layer number="144" name="Drill_legend" color="7" fill="1" visible="yes" active="yes"/>
<layer number="150" name="Notes" color="7" fill="1" visible="yes" active="yes"/>
<layer number="151" name="HeatSink" color="7" fill="1" visible="yes" active="yes"/>
<layer number="152" name="_bDocu" color="7" fill="1" visible="yes" active="yes"/>
<layer number="153" name="FabDoc1" color="6" fill="1" visible="no" active="no"/>
<layer number="154" name="FabDoc2" color="2" fill="1" visible="no" active="no"/>
<layer number="155" name="FabDoc3" color="7" fill="15" visible="no" active="no"/>
<layer number="199" name="Contour" color="7" fill="1" visible="yes" active="yes"/>
<layer number="200" name="200bmp" color="1" fill="10" visible="yes" active="yes"/>
<layer number="201" name="201bmp" color="2" fill="1" visible="no" active="no"/>
<layer number="202" name="202bmp" color="3" fill="1" visible="no" active="no"/>
<layer number="203" name="203bmp" color="4" fill="10" visible="yes" active="yes"/>
<layer number="204" name="204bmp" color="5" fill="10" visible="yes" active="yes"/>
<layer number="205" name="205bmp" color="6" fill="10" visible="yes" active="yes"/>
<layer number="206" name="206bmp" color="7" fill="10" visible="yes" active="yes"/>
<layer number="207" name="207bmp" color="8" fill="10" visible="yes" active="yes"/>
<layer number="208" name="208bmp" color="9" fill="10" visible="yes" active="yes"/>
<layer number="209" name="209bmp" color="7" fill="1" visible="yes" active="yes"/>
<layer number="210" name="210bmp" color="7" fill="1" visible="yes" active="yes"/>
<layer number="211" name="211bmp" color="7" fill="1" visible="yes" active="yes"/>
<layer number="212" name="212bmp" color="7" fill="1" visible="yes" active="yes"/>
<layer number="213" name="213bmp" color="7" fill="1" visible="yes" active="yes"/>
<layer number="214" name="214bmp" color="7" fill="1" visible="yes" active="yes"/>
<layer number="215" name="215bmp" color="7" fill="1" visible="yes" active="yes"/>
<layer number="216" name="216bmp" color="7" fill="1" visible="yes" active="yes"/>
<layer number="217" name="217bmp" color="18" fill="1" visible="no" active="no"/>
<layer number="218" name="218bmp" color="19" fill="1" visible="no" active="no"/>
<layer number="219" name="219bmp" color="20" fill="1" visible="no" active="no"/>
<layer number="220" name="220bmp" color="21" fill="1" visible="no" active="no"/>
<layer number="221" name="221bmp" color="22" fill="1" visible="no" active="no"/>
<layer number="222" name="222bmp" color="23" fill="1" visible="no" active="no"/>
<layer number="223" name="223bmp" color="24" fill="1" visible="no" active="no"/>
<layer number="224" name="224bmp" color="25" fill="1" visible="no" active="no"/>
<layer number="225" name="225bmp" color="7" fill="1" visible="yes" active="yes"/>
<layer number="226" name="226bmp" color="7" fill="1" visible="yes" active="yes"/>
<layer number="227" name="227bmp" color="7" fill="1" visible="yes" active="yes"/>
<layer number="228" name="228bmp" color="7" fill="1" visible="yes" active="yes"/>
<layer number="229" name="229bmp" color="7" fill="1" visible="yes" active="yes"/>
<layer number="230" name="230bmp" color="7" fill="1" visible="yes" active="yes"/>
<layer number="231" name="Eagle3D_PG1" color="7" fill="1" visible="no" active="no"/>
<layer number="232" name="Eagle3D_PG2" color="7" fill="1" visible="no" active="no"/>
<layer number="233" name="Eagle3D_PG3" color="7" fill="1" visible="no" active="no"/>
<layer number="248" name="Housing" color="7" fill="1" visible="yes" active="yes"/>
<layer number="249" name="Edge" color="7" fill="1" visible="yes" active="yes"/>
<layer number="250" name="Descript" color="7" fill="1" visible="no" active="no"/>
<layer number="251" name="SMDround" color="7" fill="1" visible="no" active="no"/>
<layer number="254" name="cooling" color="7" fill="1" visible="yes" active="yes"/>
<layer number="255" name="routoute" color="7" fill="1" visible="yes" active="yes"/>
</layers>
<board>
<plain>
<text x="58.928" y="90.424" size="3.81" layer="25" font="vector" rot="R180">XB Node V1</text>
<text x="46.355" y="25.019" size="5.08" layer="21" font="vector" rot="R90">+</text>
<text x="47.625" y="24.384" size="5.08" layer="21" font="vector">-</text>
<text x="44.45" y="38.354" size="1.9304" layer="21" font="vector" rot="R90">Red</text>
<text x="60.325" y="28.194" size="3.81" layer="21" font="vector" rot="R180">S1</text>
<text x="71.12" y="28.194" size="3.81" layer="21" font="vector" rot="R180">S2</text>
<text x="49.53" y="38.354" size="1.9304" layer="21" font="vector" rot="R90">Black</text>
<text x="60.325" y="38.354" size="1.9304" layer="21" font="vector" rot="R90">Blue</text>
<text x="55.245" y="38.354" size="1.9304" layer="21" font="vector" rot="R90">White</text>
<text x="24.13" y="6.604" size="2.1844" layer="25" font="vector">TinkerElectric.com</text>
<text x="65.405" y="38.354" size="1.9304" layer="21" font="vector" rot="R90">OTH1</text>
<text x="70.485" y="38.354" size="1.9304" layer="21" font="vector" rot="R90">OTH2</text>
<text x="24.13" y="2.794" size="2.1844" layer="25" font="vector">(c) 2018</text>
</plain>
<libraries>
<library name="SparkFun-RF">
<description>&lt;h3&gt;SparkFun RF, WiFi, Cellular, and Bluetooth&lt;/h3&gt;
In this library you'll find things that send or receive RF-- cellular modules, Bluetooth, WiFi, etc.
&lt;br&gt;
&lt;br&gt;
We've spent an enormous amount of time creating and checking these footprints and parts, but it is &lt;b&gt; the end user's responsibility&lt;/b&gt; to ensure correctness and suitablity for a given componet or application. 
&lt;br&gt;
&lt;br&gt;If you enjoy using this library, please buy one of our products at &lt;a href=" www.sparkfun.com"&gt;SparkFun.com&lt;/a&gt;.
&lt;br&gt;
&lt;br&gt;
&lt;b&gt;Licensing:&lt;/b&gt; Creative Commons ShareAlike 4.0 International - https://creativecommons.org/licenses/by-sa/4.0/ 
&lt;br&gt;
&lt;br&gt;
You are welcome to use this library for commercial purposes. For attribution, we ask that when you begin to sell your device using our footprint, you email us with a link to the product being sold. We want bragging rights that we helped (in a very small part) to create your 8th world wonder. We would like the opportunity to feature your device on our homepage.</description>
<packages>
<package name="XBEE-LOCK">
<description>&lt;h3&gt;Digi XBee and XBee-PRO RF Modules (Locking footprint)&lt;/h3&gt;
&lt;p&gt;20-pin 2mm PTH headers - offset to "lock" headers in place for soldering.&lt;/p&gt;
&lt;p&gt;&lt;a href="https://www.sparkfun.com/datasheets/Wireless/Zigbee/XBee-Dimensional.pdf"&gt;XBee Mechanical Drawings&lt;/a&gt;&lt;/p&gt;
&lt;p&gt;&lt;a href="http://www.sparkfun.com/datasheets/Prototyping/XBee-Connector.pdf"&gt;Header Mechanical Drawing&lt;/a&gt;&lt;/p&gt;
&lt;p&gt;&lt;a href="https://www.sparkfun.com/products/8272"&gt;Header SparkFun Product Link&lt;/a&gt;&lt;/p&gt;</description>
<wire x1="-5" y1="27.6" x2="5" y2="27.6" width="0.127" layer="51"/>
<wire x1="-12.25" y1="21.25" x2="-5" y2="27.6" width="0.127" layer="51"/>
<wire x1="12.25" y1="21.25" x2="5" y2="27.6" width="0.127" layer="51"/>
<wire x1="9.75" y1="21.25" x2="12.25" y2="21.25" width="0.2032" layer="21"/>
<wire x1="12.25" y1="21.25" x2="12.25" y2="0.75" width="0.2032" layer="21"/>
<wire x1="12.25" y1="0.75" x2="9.75" y2="0.75" width="0.2032" layer="21"/>
<wire x1="9.75" y1="21.25" x2="9.75" y2="0.75" width="0.2032" layer="21"/>
<wire x1="-9.75" y1="21.25" x2="-12.25" y2="21.25" width="0.2032" layer="21"/>
<wire x1="-12.25" y1="21.25" x2="-12.25" y2="0.75" width="0.2032" layer="21"/>
<wire x1="-12.25" y1="0.75" x2="-9.75" y2="0.75" width="0.2032" layer="21"/>
<wire x1="-9.75" y1="21.25" x2="-9.75" y2="0.75" width="0.2032" layer="21"/>
<wire x1="-12.25" y1="0.75" x2="-12.25" y2="0" width="0.127" layer="51"/>
<wire x1="12.25" y1="0.75" x2="12.25" y2="0" width="0.127" layer="51"/>
<wire x1="-12.25" y1="0" x2="12.25" y2="0" width="0.127" layer="51"/>
<wire x1="12.25" y1="0" x2="12.25" y2="-6.25" width="0.127" layer="51"/>
<wire x1="-12.25" y1="0" x2="-12.25" y2="-6.25" width="0.127" layer="51"/>
<wire x1="-12.25" y1="-6.25" x2="12.25" y2="-6.25" width="0.127" layer="51"/>
<rectangle x1="-11.0998" y1="1.7272" x2="-10.8966" y2="2.2352" layer="51"/>
<rectangle x1="-11.0998" y1="3.7338" x2="-10.8966" y2="4.2418" layer="51"/>
<rectangle x1="-11.0998" y1="5.715" x2="-10.8966" y2="6.223" layer="51"/>
<rectangle x1="-11.0998" y1="7.7216" x2="-10.8966" y2="8.2296" layer="51"/>
<rectangle x1="-11.0998" y1="9.7282" x2="-10.8966" y2="10.2362" layer="51"/>
<rectangle x1="-11.0998" y1="11.7602" x2="-10.8966" y2="12.2682" layer="51"/>
<rectangle x1="-11.0998" y1="13.7414" x2="-10.8966" y2="14.2494" layer="51"/>
<rectangle x1="-11.0998" y1="15.7226" x2="-10.8966" y2="16.2306" layer="51"/>
<rectangle x1="-11.0998" y1="17.7292" x2="-10.8966" y2="18.2372" layer="51"/>
<rectangle x1="-11.0998" y1="19.7358" x2="-10.8966" y2="20.2438" layer="51"/>
<rectangle x1="10.8966" y1="1.7272" x2="11.0998" y2="2.2352" layer="51"/>
<rectangle x1="10.8966" y1="3.7338" x2="11.0998" y2="4.2418" layer="51"/>
<rectangle x1="10.8966" y1="5.715" x2="11.0998" y2="6.223" layer="51"/>
<rectangle x1="10.8966" y1="7.7216" x2="11.0998" y2="8.2296" layer="51"/>
<rectangle x1="10.8966" y1="9.7282" x2="11.0998" y2="10.2362" layer="51"/>
<rectangle x1="10.8966" y1="11.7602" x2="11.0998" y2="12.2682" layer="51"/>
<rectangle x1="10.8966" y1="13.7414" x2="11.0998" y2="14.2494" layer="51"/>
<rectangle x1="10.8966" y1="15.7226" x2="11.0998" y2="16.2306" layer="51"/>
<rectangle x1="10.8966" y1="17.7292" x2="11.0998" y2="18.2372" layer="51"/>
<rectangle x1="10.8966" y1="19.7358" x2="11.0998" y2="20.2438" layer="51"/>
<pad name="1" x="-11.1778" y="20" drill="0.7366" diameter="1.524"/>
<pad name="2" x="-10.8222" y="18" drill="0.7366" diameter="1.524"/>
<pad name="3" x="-11.1778" y="16" drill="0.7366" diameter="1.524"/>
<pad name="4" x="-10.8222" y="14" drill="0.7366" diameter="1.524"/>
<pad name="5" x="-11.1778" y="12" drill="0.7366" diameter="1.524"/>
<pad name="6" x="-10.8222" y="10" drill="0.7366" diameter="1.524"/>
<pad name="7" x="-11.1778" y="8" drill="0.7366" diameter="1.524"/>
<pad name="8" x="-10.8222" y="6" drill="0.7366" diameter="1.524"/>
<pad name="9" x="-11.1778" y="4" drill="0.7366" diameter="1.524"/>
<pad name="10" x="-10.8222" y="2" drill="0.7366" diameter="1.524"/>
<pad name="11" x="11.1778" y="2" drill="0.7366" diameter="1.524"/>
<pad name="12" x="10.8222" y="4" drill="0.7366" diameter="1.524"/>
<pad name="13" x="11.1778" y="6" drill="0.7366" diameter="1.524"/>
<pad name="14" x="10.8222" y="8" drill="0.7366" diameter="1.524"/>
<pad name="15" x="11.1778" y="10" drill="0.7366" diameter="1.524"/>
<pad name="16" x="10.8222" y="12" drill="0.7366" diameter="1.524"/>
<pad name="17" x="11.1778" y="14" drill="0.7366" diameter="1.524"/>
<pad name="18" x="10.8222" y="16" drill="0.7366" diameter="1.524"/>
<pad name="19" x="11.1778" y="18" drill="0.7366" diameter="1.524"/>
<pad name="20" x="10.8222" y="20" drill="0.7366" diameter="1.524"/>
<text x="0" y="9.16" size="0.6096" layer="25" font="vector" ratio="20" align="bottom-center">&gt;NAME</text>
<text x="0" y="8.62" size="0.6096" layer="27" font="vector" ratio="20" align="top-center">&gt;VALUE</text>
<text x="-9.5" y="20" size="1.016" layer="21" font="vector" ratio="15" align="center-left">1</text>
</package>
</packages>
</library>
<library name="TinkerElectric">
<packages>
<package name="MODULE_1">
<wire x1="15.24" y1="-28.88" x2="15.24" y2="0" width="0.2032" layer="21"/>
<wire x1="15.24" y1="0" x2="-8.885990625" y2="0" width="0.2032" layer="21"/>
<wire x1="-8.885990625" y1="0" x2="-15.22" y2="-6.334009375" width="0.2032" layer="21"/>
<wire x1="-15.22" y1="-6.334009375" x2="-15.22" y2="-28.88" width="0.2032" layer="21"/>
<wire x1="-15.22" y1="-28.88" x2="15.24" y2="-28.88" width="0.2032" layer="21"/>
<pad name="B1" x="12.7" y="-8.89" drill="0.8" rot="R180"/>
<pad name="B2" x="12.7" y="-11.43" drill="0.8" rot="R180"/>
<pad name="B3" x="12.7" y="-13.97" drill="0.8" rot="R180"/>
<pad name="B4" x="12.7" y="-16.51" drill="0.8" rot="R180"/>
<pad name="B5" x="12.7" y="-19.05" drill="0.8" rot="R180"/>
<pad name="A1" x="-12.7" y="-8.89" drill="0.8" rot="R180"/>
<pad name="A2" x="-12.7" y="-11.43" drill="0.8" rot="R180"/>
<pad name="A3" x="-12.7" y="-13.97" drill="0.8" rot="R180"/>
<pad name="A4" x="-12.7" y="-16.51" drill="0.8" rot="R180"/>
<pad name="A5" x="-12.7" y="-19.05" drill="0.8" rot="R180"/>
<text x="-7.62" y="-20.32" size="1.778" layer="21" font="vector" rot="R180" align="top-right">&gt;NAME</text>
<text x="-7.62" y="-13.97" size="1.778" layer="21" font="vector" rot="R180" align="top-right">&gt;VALUE</text>
<hole x="12.7" y="-2.54" drill="3.2"/>
<polygon width="0.127" layer="41">
<vertex x="15.24" y="0"/>
<vertex x="10.16" y="0"/>
<vertex x="10.16" y="-5.08"/>
<vertex x="15.24" y="-5.08"/>
</polygon>
<polygon width="0.127" layer="42">
<vertex x="10.16" y="-5.08"/>
<vertex x="15.24" y="-5.08"/>
<vertex x="15.24" y="0"/>
<vertex x="10.16" y="0"/>
</polygon>
</package>
<package name="1X02_5MM">
<pad name="P$1" x="0" y="0" drill="1.143" diameter="2.1844" shape="square"/>
<pad name="P$2" x="5" y="0" drill="1.143" diameter="2.1844" shape="long" rot="R90"/>
<wire x1="-2.5" y1="3.85" x2="-2.5" y2="-3.85" width="0.127" layer="21"/>
<wire x1="-2.5" y1="-3.85" x2="7.5" y2="-3.85" width="0.127" layer="21"/>
<wire x1="7.5" y1="-3.85" x2="7.5" y2="3.85" width="0.127" layer="21"/>
<wire x1="7.5" y1="3.85" x2="-2.5" y2="3.85" width="0.127" layer="21"/>
<text x="-1.27" y="2.54" size="1.27" layer="21">&gt;VALUE</text>
<text x="-1.27" y="-3.81" size="1.27" layer="21">&gt;NAME</text>
</package>
<package name="1554F">
<wire x1="48.603" y1="0.09644375" x2="48.612771875" y2="0.190603125" width="0.1" layer="48"/>
<wire x1="48.612771875" y1="0.190603125" x2="48.63138125" y2="0.28154375" width="0.1" layer="48"/>
<wire x1="48.63138125" y1="0.28154375" x2="48.649990625" y2="0.3724875" width="0.1" layer="48"/>
<wire x1="48.649990625" y1="0.3724875" x2="48.6774375" y2="0.460209375" width="0.1" layer="48"/>
<wire x1="48.6774375" y1="0.460209375" x2="48.712784375" y2="0.543775" width="0.1" layer="48"/>
<wire x1="48.712784375" y1="0.543775" x2="48.748128125" y2="0.62734375" width="0.1" layer="48"/>
<wire x1="48.748128125" y1="0.62734375" x2="48.791375" y2="0.70675625" width="0.1" layer="48"/>
<wire x1="48.791375" y1="0.70675625" x2="48.8415875" y2="0.781075" width="0.1" layer="48"/>
<wire x1="48.8415875" y1="0.781075" x2="48.891796875" y2="0.855396875" width="0.1" layer="48"/>
<wire x1="48.891796875" y1="0.855396875" x2="48.94896875" y2="0.924625" width="0.1" layer="48"/>
<wire x1="48.94896875" y1="0.924625" x2="49.075375" y2="1.05103125" width="0.1" layer="48"/>
<wire x1="49.075375" y1="1.05103125" x2="49.144603125" y2="1.108203125" width="0.1" layer="48"/>
<wire x1="49.144603125" y1="1.108203125" x2="49.218925" y2="1.1584125" width="0.1" layer="48"/>
<wire x1="49.218925" y1="1.1584125" x2="49.29324375" y2="1.208625" width="0.1" layer="48"/>
<wire x1="49.29324375" y1="1.208625" x2="49.37265625" y2="1.251871875" width="0.1" layer="48"/>
<wire x1="49.37265625" y1="1.251871875" x2="49.456225" y2="1.287215625" width="0.1" layer="48"/>
<wire x1="49.456225" y1="1.287215625" x2="49.539790625" y2="1.3225625" width="0.1" layer="48"/>
<wire x1="49.539790625" y1="1.3225625" x2="49.6275125" y2="1.350009375" width="0.1" layer="48"/>
<wire x1="49.6275125" y1="1.350009375" x2="49.71845625" y2="1.36861875" width="0.1" layer="48"/>
<wire x1="49.71845625" y1="1.36861875" x2="49.809396875" y2="1.387228125" width="0.1" layer="48"/>
<wire x1="49.809396875" y1="1.387228125" x2="49.90355625" y2="1.397" width="0.1" layer="48"/>
<wire x1="49.90355625" y1="1.397" x2="50.09644375" y2="1.397" width="0.1" layer="48"/>
<wire x1="50.09644375" y1="1.397" x2="50.190603125" y2="1.387228125" width="0.1" layer="48"/>
<wire x1="50.190603125" y1="1.387228125" x2="50.28154375" y2="1.36861875" width="0.1" layer="48"/>
<wire x1="50.28154375" y1="1.36861875" x2="50.3724875" y2="1.350009375" width="0.1" layer="48"/>
<wire x1="50.3724875" y1="1.350009375" x2="50.460209375" y2="1.3225625" width="0.1" layer="48"/>
<wire x1="50.460209375" y1="1.3225625" x2="50.543775" y2="1.287215625" width="0.1" layer="48"/>
<wire x1="50.543775" y1="1.287215625" x2="50.62734375" y2="1.251871875" width="0.1" layer="48"/>
<wire x1="50.62734375" y1="1.251871875" x2="50.70675625" y2="1.208625" width="0.1" layer="48"/>
<wire x1="50.70675625" y1="1.208625" x2="50.781075" y2="1.1584125" width="0.1" layer="48"/>
<wire x1="50.781075" y1="1.1584125" x2="50.855396875" y2="1.108203125" width="0.1" layer="48"/>
<wire x1="50.855396875" y1="1.108203125" x2="50.924625" y2="1.05103125" width="0.1" layer="48"/>
<wire x1="50.924625" y1="1.05103125" x2="51.05103125" y2="0.924625" width="0.1" layer="48"/>
<wire x1="51.05103125" y1="0.924625" x2="51.108203125" y2="0.855396875" width="0.1" layer="48"/>
<wire x1="51.108203125" y1="0.855396875" x2="51.1584125" y2="0.781075" width="0.1" layer="48"/>
<wire x1="51.1584125" y1="0.781075" x2="51.208625" y2="0.70675625" width="0.1" layer="48"/>
<wire x1="51.208625" y1="0.70675625" x2="51.251871875" y2="0.62734375" width="0.1" layer="48"/>
<wire x1="51.251871875" y1="0.62734375" x2="51.287215625" y2="0.543775" width="0.1" layer="48"/>
<wire x1="51.287215625" y1="0.543775" x2="51.3225625" y2="0.460209375" width="0.1" layer="48"/>
<wire x1="51.3225625" y1="0.460209375" x2="51.350009375" y2="0.3724875" width="0.1" layer="48"/>
<wire x1="51.350009375" y1="0.3724875" x2="51.36861875" y2="0.28154375" width="0.1" layer="48"/>
<wire x1="51.36861875" y1="0.28154375" x2="51.387228125" y2="0.190603125" width="0.1" layer="48"/>
<wire x1="51.387228125" y1="0.190603125" x2="51.397" y2="0.09644375" width="0.1" layer="48"/>
<wire x1="51.397" y1="0.09644375" x2="51.397" y2="-0.09644375" width="0.1" layer="48"/>
<wire x1="51.397" y1="-0.09644375" x2="51.387228125" y2="-0.190603125" width="0.1" layer="48"/>
<wire x1="51.387228125" y1="-0.190603125" x2="51.36861875" y2="-0.28154375" width="0.1" layer="48"/>
<wire x1="51.36861875" y1="-0.28154375" x2="51.350009375" y2="-0.3724875" width="0.1" layer="48"/>
<wire x1="51.350009375" y1="-0.3724875" x2="51.3225625" y2="-0.460209375" width="0.1" layer="48"/>
<wire x1="51.3225625" y1="-0.460209375" x2="51.287215625" y2="-0.543775" width="0.1" layer="48"/>
<wire x1="51.287215625" y1="-0.543775" x2="51.251871875" y2="-0.62734375" width="0.1" layer="48"/>
<wire x1="51.251871875" y1="-0.62734375" x2="51.208625" y2="-0.70675625" width="0.1" layer="48"/>
<wire x1="51.208625" y1="-0.70675625" x2="51.1584125" y2="-0.781075" width="0.1" layer="48"/>
<wire x1="51.1584125" y1="-0.781075" x2="51.108203125" y2="-0.855396875" width="0.1" layer="48"/>
<wire x1="51.108203125" y1="-0.855396875" x2="51.05103125" y2="-0.924625" width="0.1" layer="48"/>
<wire x1="51.05103125" y1="-0.924625" x2="50.924625" y2="-1.05103125" width="0.1" layer="48"/>
<wire x1="50.924625" y1="-1.05103125" x2="50.855396875" y2="-1.108203125" width="0.1" layer="48"/>
<wire x1="50.855396875" y1="-1.108203125" x2="50.781075" y2="-1.1584125" width="0.1" layer="48"/>
<wire x1="50.781075" y1="-1.1584125" x2="50.70675625" y2="-1.208625" width="0.1" layer="48"/>
<wire x1="50.70675625" y1="-1.208625" x2="50.62734375" y2="-1.251871875" width="0.1" layer="48"/>
<wire x1="50.62734375" y1="-1.251871875" x2="50.543775" y2="-1.287215625" width="0.1" layer="48"/>
<wire x1="50.543775" y1="-1.287215625" x2="50.460209375" y2="-1.3225625" width="0.1" layer="48"/>
<wire x1="50.460209375" y1="-1.3225625" x2="50.3724875" y2="-1.350009375" width="0.1" layer="48"/>
<wire x1="50.3724875" y1="-1.350009375" x2="50.28154375" y2="-1.36861875" width="0.1" layer="48"/>
<wire x1="50.28154375" y1="-1.36861875" x2="50.190603125" y2="-1.387228125" width="0.1" layer="48"/>
<wire x1="50.190603125" y1="-1.387228125" x2="50.09644375" y2="-1.397" width="0.1" layer="48"/>
<wire x1="50.09644375" y1="-1.397" x2="49.90355625" y2="-1.397" width="0.1" layer="48"/>
<wire x1="49.90355625" y1="-1.397" x2="49.809396875" y2="-1.387228125" width="0.1" layer="48"/>
<wire x1="49.809396875" y1="-1.387228125" x2="49.71845625" y2="-1.36861875" width="0.1" layer="48"/>
<wire x1="49.71845625" y1="-1.36861875" x2="49.6275125" y2="-1.350009375" width="0.1" layer="48"/>
<wire x1="49.6275125" y1="-1.350009375" x2="49.539790625" y2="-1.3225625" width="0.1" layer="48"/>
<wire x1="49.539790625" y1="-1.3225625" x2="49.456225" y2="-1.287215625" width="0.1" layer="48"/>
<wire x1="49.456225" y1="-1.287215625" x2="49.37265625" y2="-1.251871875" width="0.1" layer="48"/>
<wire x1="49.37265625" y1="-1.251871875" x2="49.29324375" y2="-1.208625" width="0.1" layer="48"/>
<wire x1="49.29324375" y1="-1.208625" x2="49.218925" y2="-1.1584125" width="0.1" layer="48"/>
<wire x1="49.218925" y1="-1.1584125" x2="49.144603125" y2="-1.108203125" width="0.1" layer="48"/>
<wire x1="49.144603125" y1="-1.108203125" x2="49.075375" y2="-1.05103125" width="0.1" layer="48"/>
<wire x1="49.075375" y1="-1.05103125" x2="48.94896875" y2="-0.924625" width="0.1" layer="48"/>
<wire x1="48.94896875" y1="-0.924625" x2="48.891796875" y2="-0.855396875" width="0.1" layer="48"/>
<wire x1="48.891796875" y1="-0.855396875" x2="48.8415875" y2="-0.781075" width="0.1" layer="48"/>
<wire x1="48.8415875" y1="-0.781075" x2="48.791375" y2="-0.70675625" width="0.1" layer="48"/>
<wire x1="48.791375" y1="-0.70675625" x2="48.748128125" y2="-0.62734375" width="0.1" layer="48"/>
<wire x1="48.748128125" y1="-0.62734375" x2="48.712784375" y2="-0.543775" width="0.1" layer="48"/>
<wire x1="48.712784375" y1="-0.543775" x2="48.6774375" y2="-0.460209375" width="0.1" layer="48"/>
<wire x1="48.6774375" y1="-0.460209375" x2="48.649990625" y2="-0.3724875" width="0.1" layer="48"/>
<wire x1="48.649990625" y1="-0.3724875" x2="48.63138125" y2="-0.28154375" width="0.1" layer="48"/>
<wire x1="48.63138125" y1="-0.28154375" x2="48.612771875" y2="-0.190603125" width="0.1" layer="48"/>
<wire x1="48.612771875" y1="-0.190603125" x2="48.603" y2="-0.09644375" width="0.1" layer="48"/>
<wire x1="48.603" y1="-0.09644375" x2="48.603" y2="0.09644375" width="0.1" layer="48"/>
<wire x1="-51.397" y1="0.09644375" x2="-51.387228125" y2="0.190603125" width="0.1" layer="48"/>
<wire x1="-51.387228125" y1="0.190603125" x2="-51.36861875" y2="0.28154375" width="0.1" layer="48"/>
<wire x1="-51.36861875" y1="0.28154375" x2="-51.350009375" y2="0.3724875" width="0.1" layer="48"/>
<wire x1="-51.350009375" y1="0.3724875" x2="-51.3225625" y2="0.460209375" width="0.1" layer="48"/>
<wire x1="-51.3225625" y1="0.460209375" x2="-51.287215625" y2="0.543775" width="0.1" layer="48"/>
<wire x1="-51.287215625" y1="0.543775" x2="-51.251871875" y2="0.62734375" width="0.1" layer="48"/>
<wire x1="-51.251871875" y1="0.62734375" x2="-51.208625" y2="0.70675625" width="0.1" layer="48"/>
<wire x1="-51.208625" y1="0.70675625" x2="-51.1584125" y2="0.781075" width="0.1" layer="48"/>
<wire x1="-51.1584125" y1="0.781075" x2="-51.108203125" y2="0.855396875" width="0.1" layer="48"/>
<wire x1="-51.108203125" y1="0.855396875" x2="-51.05103125" y2="0.924625" width="0.1" layer="48"/>
<wire x1="-51.05103125" y1="0.924625" x2="-50.924625" y2="1.05103125" width="0.1" layer="48"/>
<wire x1="-50.924625" y1="1.05103125" x2="-50.855396875" y2="1.108203125" width="0.1" layer="48"/>
<wire x1="-50.855396875" y1="1.108203125" x2="-50.781075" y2="1.1584125" width="0.1" layer="48"/>
<wire x1="-50.781075" y1="1.1584125" x2="-50.70675625" y2="1.208625" width="0.1" layer="48"/>
<wire x1="-50.70675625" y1="1.208625" x2="-50.62734375" y2="1.251871875" width="0.1" layer="48"/>
<wire x1="-50.62734375" y1="1.251871875" x2="-50.543775" y2="1.287215625" width="0.1" layer="48"/>
<wire x1="-50.543775" y1="1.287215625" x2="-50.460209375" y2="1.3225625" width="0.1" layer="48"/>
<wire x1="-50.460209375" y1="1.3225625" x2="-50.3724875" y2="1.350009375" width="0.1" layer="48"/>
<wire x1="-50.3724875" y1="1.350009375" x2="-50.28154375" y2="1.36861875" width="0.1" layer="48"/>
<wire x1="-50.28154375" y1="1.36861875" x2="-50.190603125" y2="1.387228125" width="0.1" layer="48"/>
<wire x1="-50.190603125" y1="1.387228125" x2="-50.09644375" y2="1.397" width="0.1" layer="48"/>
<wire x1="-50.09644375" y1="1.397" x2="-49.90355625" y2="1.397" width="0.1" layer="48"/>
<wire x1="-49.90355625" y1="1.397" x2="-49.809396875" y2="1.387228125" width="0.1" layer="48"/>
<wire x1="-49.809396875" y1="1.387228125" x2="-49.71845625" y2="1.36861875" width="0.1" layer="48"/>
<wire x1="-49.71845625" y1="1.36861875" x2="-49.6275125" y2="1.350009375" width="0.1" layer="48"/>
<wire x1="-49.6275125" y1="1.350009375" x2="-49.539790625" y2="1.3225625" width="0.1" layer="48"/>
<wire x1="-49.539790625" y1="1.3225625" x2="-49.456225" y2="1.287215625" width="0.1" layer="48"/>
<wire x1="-49.456225" y1="1.287215625" x2="-49.37265625" y2="1.251871875" width="0.1" layer="48"/>
<wire x1="-49.37265625" y1="1.251871875" x2="-49.29324375" y2="1.208625" width="0.1" layer="48"/>
<wire x1="-49.29324375" y1="1.208625" x2="-49.218925" y2="1.1584125" width="0.1" layer="48"/>
<wire x1="-49.218925" y1="1.1584125" x2="-49.144603125" y2="1.108203125" width="0.1" layer="48"/>
<wire x1="-49.144603125" y1="1.108203125" x2="-49.075375" y2="1.05103125" width="0.1" layer="48"/>
<wire x1="-49.075375" y1="1.05103125" x2="-48.94896875" y2="0.924625" width="0.1" layer="48"/>
<wire x1="-48.94896875" y1="0.924625" x2="-48.891796875" y2="0.855396875" width="0.1" layer="48"/>
<wire x1="-48.891796875" y1="0.855396875" x2="-48.8415875" y2="0.781075" width="0.1" layer="48"/>
<wire x1="-48.8415875" y1="0.781075" x2="-48.791375" y2="0.70675625" width="0.1" layer="48"/>
<wire x1="-48.791375" y1="0.70675625" x2="-48.748128125" y2="0.62734375" width="0.1" layer="48"/>
<wire x1="-48.748128125" y1="0.62734375" x2="-48.712784375" y2="0.543775" width="0.1" layer="48"/>
<wire x1="-48.712784375" y1="0.543775" x2="-48.6774375" y2="0.460209375" width="0.1" layer="48"/>
<wire x1="-48.6774375" y1="0.460209375" x2="-48.649990625" y2="0.3724875" width="0.1" layer="48"/>
<wire x1="-48.649990625" y1="0.3724875" x2="-48.63138125" y2="0.28154375" width="0.1" layer="48"/>
<wire x1="-48.63138125" y1="0.28154375" x2="-48.612771875" y2="0.190603125" width="0.1" layer="48"/>
<wire x1="-48.612771875" y1="0.190603125" x2="-48.603" y2="0.09644375" width="0.1" layer="48"/>
<wire x1="-48.603" y1="0.09644375" x2="-48.603" y2="-0.09644375" width="0.1" layer="48"/>
<wire x1="-48.603" y1="-0.09644375" x2="-48.612771875" y2="-0.190603125" width="0.1" layer="48"/>
<wire x1="-48.612771875" y1="-0.190603125" x2="-48.63138125" y2="-0.28154375" width="0.1" layer="48"/>
<wire x1="-48.63138125" y1="-0.28154375" x2="-48.649990625" y2="-0.3724875" width="0.1" layer="48"/>
<wire x1="-48.649990625" y1="-0.3724875" x2="-48.6774375" y2="-0.460209375" width="0.1" layer="48"/>
<wire x1="-48.6774375" y1="-0.460209375" x2="-48.712784375" y2="-0.543775" width="0.1" layer="48"/>
<wire x1="-48.712784375" y1="-0.543775" x2="-48.748128125" y2="-0.62734375" width="0.1" layer="48"/>
<wire x1="-48.748128125" y1="-0.62734375" x2="-48.791375" y2="-0.70675625" width="0.1" layer="48"/>
<wire x1="-48.791375" y1="-0.70675625" x2="-48.8415875" y2="-0.781075" width="0.1" layer="48"/>
<wire x1="-48.8415875" y1="-0.781075" x2="-48.891796875" y2="-0.855396875" width="0.1" layer="48"/>
<wire x1="-48.891796875" y1="-0.855396875" x2="-48.94896875" y2="-0.924625" width="0.1" layer="48"/>
<wire x1="-48.94896875" y1="-0.924625" x2="-49.075375" y2="-1.05103125" width="0.1" layer="48"/>
<wire x1="-49.075375" y1="-1.05103125" x2="-49.144603125" y2="-1.108203125" width="0.1" layer="48"/>
<wire x1="-49.144603125" y1="-1.108203125" x2="-49.218925" y2="-1.1584125" width="0.1" layer="48"/>
<wire x1="-49.218925" y1="-1.1584125" x2="-49.29324375" y2="-1.208625" width="0.1" layer="48"/>
<wire x1="-49.29324375" y1="-1.208625" x2="-49.37265625" y2="-1.251871875" width="0.1" layer="48"/>
<wire x1="-49.37265625" y1="-1.251871875" x2="-49.456225" y2="-1.287215625" width="0.1" layer="48"/>
<wire x1="-49.456225" y1="-1.287215625" x2="-49.539790625" y2="-1.3225625" width="0.1" layer="48"/>
<wire x1="-49.539790625" y1="-1.3225625" x2="-49.6275125" y2="-1.350009375" width="0.1" layer="48"/>
<wire x1="-49.6275125" y1="-1.350009375" x2="-49.71845625" y2="-1.36861875" width="0.1" layer="48"/>
<wire x1="-49.71845625" y1="-1.36861875" x2="-49.809396875" y2="-1.387228125" width="0.1" layer="48"/>
<wire x1="-49.809396875" y1="-1.387228125" x2="-49.90355625" y2="-1.397" width="0.1" layer="48"/>
<wire x1="-49.90355625" y1="-1.397" x2="-50.09644375" y2="-1.397" width="0.1" layer="48"/>
<wire x1="-50.09644375" y1="-1.397" x2="-50.190603125" y2="-1.387228125" width="0.1" layer="48"/>
<wire x1="-50.190603125" y1="-1.387228125" x2="-50.28154375" y2="-1.36861875" width="0.1" layer="48"/>
<wire x1="-50.28154375" y1="-1.36861875" x2="-50.3724875" y2="-1.350009375" width="0.1" layer="48"/>
<wire x1="-50.3724875" y1="-1.350009375" x2="-50.460209375" y2="-1.3225625" width="0.1" layer="48"/>
<wire x1="-50.460209375" y1="-1.3225625" x2="-50.543775" y2="-1.287215625" width="0.1" layer="48"/>
<wire x1="-50.543775" y1="-1.287215625" x2="-50.62734375" y2="-1.251871875" width="0.1" layer="48"/>
<wire x1="-50.62734375" y1="-1.251871875" x2="-50.70675625" y2="-1.208625" width="0.1" layer="48"/>
<wire x1="-50.70675625" y1="-1.208625" x2="-50.781075" y2="-1.1584125" width="0.1" layer="48"/>
<wire x1="-50.781075" y1="-1.1584125" x2="-50.855396875" y2="-1.108203125" width="0.1" layer="48"/>
<wire x1="-50.855396875" y1="-1.108203125" x2="-50.924625" y2="-1.05103125" width="0.1" layer="48"/>
<wire x1="-50.924625" y1="-1.05103125" x2="-51.05103125" y2="-0.924625" width="0.1" layer="48"/>
<wire x1="-51.05103125" y1="-0.924625" x2="-51.108203125" y2="-0.855396875" width="0.1" layer="48"/>
<wire x1="-51.108203125" y1="-0.855396875" x2="-51.1584125" y2="-0.781075" width="0.1" layer="48"/>
<wire x1="-51.1584125" y1="-0.781075" x2="-51.208625" y2="-0.70675625" width="0.1" layer="48"/>
<wire x1="-51.208625" y1="-0.70675625" x2="-51.251871875" y2="-0.62734375" width="0.1" layer="48"/>
<wire x1="-51.251871875" y1="-0.62734375" x2="-51.287215625" y2="-0.543775" width="0.1" layer="48"/>
<wire x1="-51.287215625" y1="-0.543775" x2="-51.3225625" y2="-0.460209375" width="0.1" layer="48"/>
<wire x1="-51.3225625" y1="-0.460209375" x2="-51.350009375" y2="-0.3724875" width="0.1" layer="48"/>
<wire x1="-51.350009375" y1="-0.3724875" x2="-51.36861875" y2="-0.28154375" width="0.1" layer="48"/>
<wire x1="-51.36861875" y1="-0.28154375" x2="-51.387228125" y2="-0.190603125" width="0.1" layer="48"/>
<wire x1="-51.387228125" y1="-0.190603125" x2="-51.397" y2="-0.09644375" width="0.1" layer="48"/>
<wire x1="-51.397" y1="-0.09644375" x2="-51.397" y2="0.09644375" width="0.1" layer="48"/>
<wire x1="-45.8724" y1="-27.11085" x2="-45.93068125" y2="-26.5493125" width="0.1" layer="48"/>
<wire x1="-45.93068125" y1="-26.5493125" x2="-46.1526375" y2="-25.46463125" width="0.1" layer="48"/>
<wire x1="-46.1526375" y1="-25.46463125" x2="-46.316315625" y2="-24.9414875" width="0.1" layer="48"/>
<wire x1="-46.316315625" y1="-24.9414875" x2="-46.737896875" y2="-23.94475625" width="0.1" layer="48"/>
<wire x1="-46.737896875" y1="-23.94475625" x2="-46.995803125" y2="-23.47116875" width="0.1" layer="48"/>
<wire x1="-46.995803125" y1="-23.47116875" x2="-47.2952375" y2="-23.027946875" width="0.1" layer="48"/>
<wire x1="-47.2952375" y1="-23.027946875" x2="-47.594675" y2="-22.584725" width="0.1" layer="48"/>
<wire x1="-47.594675" y1="-22.584725" x2="-47.9356375" y2="-22.171865625" width="0.1" layer="48"/>
<wire x1="-47.9356375" y1="-22.171865625" x2="-48.312553125" y2="-21.794953125" width="0.1" layer="48"/>
<wire x1="-48.312553125" y1="-21.794953125" x2="-48.689465625" y2="-21.4180375" width="0.1" layer="48"/>
<wire x1="-48.689465625" y1="-21.4180375" x2="-49.102325" y2="-21.077075" width="0.1" layer="48"/>
<wire x1="-49.102325" y1="-21.077075" x2="-49.545546875" y2="-20.7776375" width="0.1" layer="48"/>
<wire x1="-49.545546875" y1="-20.7776375" x2="-49.98876875" y2="-20.478203125" width="0.1" layer="48"/>
<wire x1="-49.98876875" y1="-20.478203125" x2="-50.46235625" y2="-20.220296875" width="0.1" layer="48"/>
<wire x1="-50.46235625" y1="-20.220296875" x2="-51.4590875" y2="-19.798715625" width="0.1" layer="48"/>
<wire x1="-51.4590875" y1="-19.798715625" x2="-51.98223125" y2="-19.6350375" width="0.1" layer="48"/>
<wire x1="-51.98223125" y1="-19.6350375" x2="-53.0669125" y2="-19.41308125" width="0.1" layer="48"/>
<wire x1="-53.0669125" y1="-19.41308125" x2="-53.62845" y2="-19.3548" width="0.1" layer="48"/>
<wire x1="-53.62845" y1="-19.3548" x2="-54.2036" y2="-19.3548" width="0.1" layer="48"/>
<wire x1="-54.2036" y1="-19.3548" x2="-54.2036" y2="19.3548" width="0.1" layer="48"/>
<wire x1="-54.2036" y1="19.3548" x2="-53.62845" y2="19.3548" width="0.1" layer="48"/>
<wire x1="-53.62845" y1="19.3548" x2="-53.0669125" y2="19.41308125" width="0.1" layer="48"/>
<wire x1="-53.0669125" y1="19.41308125" x2="-51.98223125" y2="19.6350375" width="0.1" layer="48"/>
<wire x1="-51.98223125" y1="19.6350375" x2="-51.4590875" y2="19.798715625" width="0.1" layer="48"/>
<wire x1="-51.4590875" y1="19.798715625" x2="-50.46235625" y2="20.220296875" width="0.1" layer="48"/>
<wire x1="-50.46235625" y1="20.220296875" x2="-49.98876875" y2="20.478203125" width="0.1" layer="48"/>
<wire x1="-49.98876875" y1="20.478203125" x2="-49.102325" y2="21.077071875" width="0.1" layer="48"/>
<wire x1="-49.102325" y1="21.077071875" x2="-48.689465625" y2="21.4180375" width="0.1" layer="48"/>
<wire x1="-48.689465625" y1="21.4180375" x2="-48.312553125" y2="21.794953125" width="0.1" layer="48"/>
<wire x1="-48.312553125" y1="21.794953125" x2="-47.9356375" y2="22.171865625" width="0.1" layer="48"/>
<wire x1="-47.9356375" y1="22.171865625" x2="-47.594675" y2="22.584725" width="0.1" layer="48"/>
<wire x1="-47.594675" y1="22.584725" x2="-47.2952375" y2="23.027946875" width="0.1" layer="48"/>
<wire x1="-47.2952375" y1="23.027946875" x2="-46.995803125" y2="23.47116875" width="0.1" layer="48"/>
<wire x1="-46.995803125" y1="23.47116875" x2="-46.737896875" y2="23.94475625" width="0.1" layer="48"/>
<wire x1="-46.737896875" y1="23.94475625" x2="-46.316315625" y2="24.9414875" width="0.1" layer="48"/>
<wire x1="-46.316315625" y1="24.9414875" x2="-46.1526375" y2="25.46463125" width="0.1" layer="48"/>
<wire x1="-46.1526375" y1="25.46463125" x2="-45.93068125" y2="26.5493125" width="0.1" layer="48"/>
<wire x1="-45.93068125" y1="26.5493125" x2="-45.8724" y2="27.11085" width="0.1" layer="48"/>
<wire x1="-45.8724" y1="27.11085" x2="-45.8724" y2="38.735" width="0.1" layer="48"/>
<wire x1="-45.8724" y1="38.735" x2="45.8724" y2="38.735" width="0.1" layer="20"/>
<wire x1="45.8724" y1="38.735" x2="45.8724" y2="27.11085" width="0.1" layer="48"/>
<wire x1="45.8724" y1="27.11085" x2="45.93068125" y2="26.5493125" width="0.1" layer="48"/>
<wire x1="45.93068125" y1="26.5493125" x2="46.1526375" y2="25.46463125" width="0.1" layer="48"/>
<wire x1="46.1526375" y1="25.46463125" x2="46.316315625" y2="24.9414875" width="0.1" layer="48"/>
<wire x1="46.316315625" y1="24.9414875" x2="46.737896875" y2="23.94475625" width="0.1" layer="48"/>
<wire x1="46.737896875" y1="23.94475625" x2="46.995803125" y2="23.47116875" width="0.1" layer="48"/>
<wire x1="46.995803125" y1="23.47116875" x2="47.594671875" y2="22.584725" width="0.1" layer="48"/>
<wire x1="47.594671875" y1="22.584725" x2="47.9356375" y2="22.171865625" width="0.1" layer="48"/>
<wire x1="47.9356375" y1="22.171865625" x2="48.312553125" y2="21.794953125" width="0.1" layer="48"/>
<wire x1="48.312553125" y1="21.794953125" x2="48.689465625" y2="21.4180375" width="0.1" layer="48"/>
<wire x1="48.689465625" y1="21.4180375" x2="49.102325" y2="21.077071875" width="0.1" layer="48"/>
<wire x1="49.102325" y1="21.077071875" x2="49.98876875" y2="20.478203125" width="0.1" layer="48"/>
<wire x1="49.98876875" y1="20.478203125" x2="50.46235625" y2="20.220296875" width="0.1" layer="48"/>
<wire x1="50.46235625" y1="20.220296875" x2="51.4590875" y2="19.798715625" width="0.1" layer="48"/>
<wire x1="51.4590875" y1="19.798715625" x2="51.98223125" y2="19.6350375" width="0.1" layer="48"/>
<wire x1="51.98223125" y1="19.6350375" x2="53.0669125" y2="19.41308125" width="0.1" layer="48"/>
<wire x1="53.0669125" y1="19.41308125" x2="53.62845" y2="19.3548" width="0.1" layer="48"/>
<wire x1="53.62845" y1="19.3548" x2="54.2036" y2="19.3548" width="0.1" layer="48"/>
<wire x1="54.2036" y1="19.3548" x2="54.2036" y2="-19.3548" width="0.1" layer="48"/>
<wire x1="54.2036" y1="-19.3548" x2="53.0669125" y2="-19.41308125" width="0.1" layer="48"/>
<wire x1="53.0669125" y1="-19.41308125" x2="51.98223125" y2="-19.6350375" width="0.1" layer="48"/>
<wire x1="51.98223125" y1="-19.6350375" x2="51.4590875" y2="-19.798715625" width="0.1" layer="48"/>
<wire x1="51.4590875" y1="-19.798715625" x2="50.46235625" y2="-20.220296875" width="0.1" layer="48"/>
<wire x1="50.46235625" y1="-20.220296875" x2="49.98876875" y2="-20.478203125" width="0.1" layer="48"/>
<wire x1="49.98876875" y1="-20.478203125" x2="49.545546875" y2="-20.7776375" width="0.1" layer="48"/>
<wire x1="49.545546875" y1="-20.7776375" x2="49.102325" y2="-21.077075" width="0.1" layer="48"/>
<wire x1="49.102325" y1="-21.077075" x2="48.689465625" y2="-21.4180375" width="0.1" layer="48"/>
<wire x1="48.689465625" y1="-21.4180375" x2="48.312553125" y2="-21.794953125" width="0.1" layer="48"/>
<wire x1="48.312553125" y1="-21.794953125" x2="47.9356375" y2="-22.171865625" width="0.1" layer="48"/>
<wire x1="47.9356375" y1="-22.171865625" x2="47.594671875" y2="-22.584725" width="0.1" layer="48"/>
<wire x1="47.594671875" y1="-22.584725" x2="46.995803125" y2="-23.47116875" width="0.1" layer="48"/>
<wire x1="46.995803125" y1="-23.47116875" x2="46.737896875" y2="-23.94475625" width="0.1" layer="48"/>
<wire x1="46.737896875" y1="-23.94475625" x2="46.316315625" y2="-24.9414875" width="0.1" layer="48"/>
<wire x1="46.316315625" y1="-24.9414875" x2="46.1526375" y2="-25.46463125" width="0.1" layer="48"/>
<wire x1="46.1526375" y1="-25.46463125" x2="45.93068125" y2="-26.5493125" width="0.1" layer="48"/>
<wire x1="45.93068125" y1="-26.5493125" x2="45.8724" y2="-27.11085" width="0.1" layer="48"/>
<wire x1="45.8724" y1="-27.11085" x2="45.8724" y2="-38.735" width="0.1" layer="48"/>
<wire x1="45.8724" y1="-38.735" x2="-45.8724" y2="-38.735" width="0.1" layer="20"/>
<wire x1="-45.8724" y1="-38.735" x2="-45.8724" y2="-27.11085" width="0.1" layer="48"/>
<hole x="-38.5" y="34" drill="3.7338"/>
<hole x="38.5" y="34" drill="3.7338"/>
<hole x="38.5" y="-34" drill="3.7338"/>
<hole x="-38.5" y="-34" drill="3.7338"/>
<wire x1="-45.8724" y1="38.735" x2="-45.8724" y2="-38.735" width="0.1" layer="20"/>
<wire x1="45.8724" y1="38.735" x2="45.8724" y2="-38.735" width="0.1" layer="20"/>
</package>
<package name="UNSEEN_ELEMENT">
</package>
</packages>
</library>
<library name="adafruit">
<packages>
<package name="1X10-BIG">
<wire x1="-12.7" y1="1.27" x2="12.7" y2="1.27" width="0.127" layer="21"/>
<wire x1="12.7" y1="1.27" x2="12.7" y2="-1.27" width="0.127" layer="21"/>
<wire x1="12.7" y1="-1.27" x2="-12.7" y2="-1.27" width="0.127" layer="21"/>
<wire x1="-12.7" y1="-1.27" x2="-12.7" y2="1.27" width="0.127" layer="21"/>
<pad name="1" x="-11.43" y="0" drill="1.016" diameter="1.778" shape="octagon" rot="R90"/>
<pad name="2" x="-8.89" y="0" drill="1.016" diameter="1.778" shape="octagon" rot="R90"/>
<pad name="3" x="-6.35" y="0" drill="1.016" diameter="1.778" shape="octagon" rot="R90"/>
<pad name="4" x="-3.81" y="0" drill="1.016" diameter="1.778" shape="octagon" rot="R90"/>
<pad name="5" x="-1.27" y="0" drill="1.016" diameter="1.778" shape="octagon" rot="R90"/>
<pad name="6" x="1.27" y="0" drill="1.016" diameter="1.778" shape="octagon" rot="R90"/>
<pad name="7" x="3.81" y="0" drill="1.016" diameter="1.778" shape="octagon" rot="R90"/>
<pad name="8" x="6.35" y="0" drill="1.016" diameter="1.778" shape="octagon" rot="R90"/>
<pad name="9" x="8.89" y="0" drill="1.016" diameter="1.778" shape="octagon" rot="R90"/>
<pad name="10" x="11.43" y="0" drill="1.016" diameter="1.778" shape="octagon" rot="R90"/>
<text x="-11.5062" y="1.8288" size="1.27" layer="25" ratio="10">&gt;NAME</text>
<text x="-11.43" y="-3.175" size="1.27" layer="27">&gt;VALUE</text>
<rectangle x1="3.556" y1="-0.254" x2="4.064" y2="0.254" layer="51"/>
<rectangle x1="1.016" y1="-0.254" x2="1.524" y2="0.254" layer="51"/>
<rectangle x1="-1.524" y1="-0.254" x2="-1.016" y2="0.254" layer="51"/>
<rectangle x1="-4.064" y1="-0.254" x2="-3.556" y2="0.254" layer="51"/>
<rectangle x1="-6.604" y1="-0.254" x2="-6.096" y2="0.254" layer="51"/>
<rectangle x1="-9.144" y1="-0.254" x2="-8.636" y2="0.254" layer="51"/>
<rectangle x1="-11.684" y1="-0.254" x2="-11.176" y2="0.254" layer="51"/>
<rectangle x1="6.096" y1="-0.254" x2="6.604" y2="0.254" layer="51"/>
<rectangle x1="8.636" y1="-0.254" x2="9.144" y2="0.254" layer="51"/>
<rectangle x1="11.176" y1="-0.254" x2="11.684" y2="0.254" layer="51"/>
</package>
</packages>
</library>
<library name="SparkFun-Jumpers">
<description>&lt;h3&gt;SparkFun Jumpers&lt;/h3&gt;
In this library you'll find jumpers, or other semipermanent means of changing current paths. The least permanent form is the solder jumper. These can be changed by adding, removing, or moving solder. In cases that are less likely to be changed we have jumpers that are connected with traces. These can be cut with a razor, or reconnected with solder. Reference designator JP.
&lt;br&gt;
&lt;br&gt;
We've spent an enormous amount of time creating and checking these footprints and parts, but it is &lt;b&gt; the end user's responsibility&lt;/b&gt; to ensure correctness and suitablity for a given componet or application. 
&lt;br&gt;
&lt;br&gt;If you enjoy using this library, please buy one of our products at &lt;a href=" www.sparkfun.com"&gt;SparkFun.com&lt;/a&gt;.
&lt;br&gt;
&lt;br&gt;
&lt;b&gt;Licensing:&lt;/b&gt; Creative Commons ShareAlike 4.0 International - https://creativecommons.org/licenses/by-sa/4.0/ 
&lt;br&gt;
&lt;br&gt;
You are welcome to use this library for commercial purposes. For attribution, we ask that when you begin to sell your device using our footprint, you email us with a link to the product being sold. We want bragging rights that we helped (in a very small part) to create your 8th world wonder. We would like the opportunity to feature your device on our homepage.</description>
<packages>
<package name="SMT-JUMPER_2_NC_TRACE_SILK">
<wire x1="0.762" y1="-1.016" x2="-0.762" y2="-1.016" width="0.1524" layer="21"/>
<wire x1="0.762" y1="1.016" x2="1.2192" y2="0.5588" width="0.1524" layer="21" curve="-90"/>
<wire x1="-1.2192" y1="0.5588" x2="-0.762" y2="1.016" width="0.1524" layer="21" curve="-90"/>
<wire x1="-1.2192" y1="-0.5588" x2="-0.762" y2="-1.016" width="0.1524" layer="21" curve="90"/>
<wire x1="0.762" y1="-1.016" x2="1.2192" y2="-0.5588" width="0.1524" layer="21" curve="90"/>
<wire x1="1.2192" y1="-0.5588" x2="1.2192" y2="0.5588" width="0.1524" layer="21"/>
<wire x1="-1.2192" y1="-0.5588" x2="-1.2192" y2="0.5588" width="0.1524" layer="21"/>
<wire x1="-0.762" y1="1.016" x2="0.762" y2="1.016" width="0.1524" layer="21"/>
<smd name="1" x="-0.508" y="0" dx="0.635" dy="1.27" layer="1" cream="no"/>
<smd name="2" x="0.508" y="0" dx="0.635" dy="1.27" layer="1" cream="no"/>
<text x="0" y="1.143" size="0.6096" layer="25" font="vector" ratio="20" align="bottom-center">&gt;NAME</text>
<text x="0" y="-1.143" size="0.6096" layer="27" font="vector" ratio="20" align="top-center">&gt;VALUE</text>
<wire x1="-0.508" y1="0" x2="0.508" y2="0" width="0.254" layer="1"/>
<polygon width="0.127" layer="29">
<vertex x="-0.1905" y="0.127"/>
<vertex x="0.1905" y="0.127"/>
<vertex x="0.1905" y="-0.127"/>
<vertex x="-0.1905" y="-0.127"/>
</polygon>
</package>
<package name="SMT-JUMPER_3_1-NC_TRACE_SILK">
<wire x1="1.27" y1="-1.016" x2="-1.27" y2="-1.016" width="0.1524" layer="21"/>
<wire x1="1.27" y1="1.016" x2="1.7272" y2="0.5588" width="0.1524" layer="21" curve="-90"/>
<wire x1="-1.7272" y1="0.5588" x2="-1.27" y2="1.016" width="0.1524" layer="21" curve="-90"/>
<wire x1="-1.7272" y1="-0.5588" x2="-1.27" y2="-1.016" width="0.1524" layer="21" curve="90"/>
<wire x1="1.27" y1="-1.016" x2="1.7272" y2="-0.5588" width="0.1524" layer="21" curve="90"/>
<wire x1="1.7272" y1="-0.5588" x2="1.7272" y2="0.5588" width="0.1524" layer="21"/>
<wire x1="-1.7272" y1="-0.5588" x2="-1.7272" y2="0.5588" width="0.1524" layer="21"/>
<wire x1="-1.27" y1="1.016" x2="1.27" y2="1.016" width="0.1524" layer="21"/>
<smd name="1" x="-1.016" y="0" dx="0.635" dy="1.27" layer="1" cream="no"/>
<smd name="2" x="0" y="0" dx="0.635" dy="1.27" layer="1" cream="no"/>
<smd name="3" x="1.016" y="0" dx="0.635" dy="1.27" layer="1" cream="no"/>
<text x="0" y="1.143" size="0.6096" layer="25" font="vector" ratio="20" align="bottom-center">&gt;NAME</text>
<text x="0" y="-1.143" size="0.6096" layer="27" font="vector" ratio="20" align="top-center">&gt;VALUE</text>
<wire x1="0" y1="0" x2="1.016" y2="0" width="0.254" layer="1"/>
<polygon width="0.127" layer="29">
<vertex x="0.3175" y="0.127"/>
<vertex x="0.6985" y="0.127"/>
<vertex x="0.6985" y="-0.127"/>
<vertex x="0.3175" y="-0.127"/>
</polygon>
</package>
</packages>
</library>
<library name="ADTSM65SV">
<description>&lt;Tactile Switches 0.05A 12VDC Salmon 320gf, 8.5mm, SPST&lt;/b&gt;&lt;p&gt;
&lt;author&gt;Created by SamacSys&lt;/author&gt;</description>
<packages>
<package name="ADTSM6XXV">
<description>&lt;b&gt;ADTSM6xxV&lt;/b&gt;&lt;br&gt;
</description>
<smd name="1" x="-3.975" y="2.25" dx="1.55" dy="1.3" layer="1"/>
<smd name="3" x="-3.975" y="-2.25" dx="1.55" dy="1.3" layer="1"/>
<smd name="4" x="3.975" y="-2.25" dx="1.55" dy="1.3" layer="1"/>
<smd name="2" x="3.975" y="2.25" dx="1.55" dy="1.3" layer="1"/>
<text x="-0.37545" y="0.04931875" size="1.27" layer="25" align="center">&gt;NAME</text>
<wire x1="-3.05" y1="3.1" x2="3.05" y2="3.1" width="0.2" layer="51"/>
<wire x1="3.05" y1="3.1" x2="3.05" y2="-3.1" width="0.2" layer="51"/>
<wire x1="3.05" y1="-3.1" x2="-3.05" y2="-3.1" width="0.2" layer="51"/>
<wire x1="-3.05" y1="-3.1" x2="-3.05" y2="3.1" width="0.2" layer="51"/>
<wire x1="-3.05" y1="-3.1" x2="-3.05" y2="3.1" width="0.2" layer="25"/>
<wire x1="-3.05" y1="3.1" x2="3.05" y2="3.1" width="0.2" layer="25"/>
<wire x1="3.05" y1="3.1" x2="3.05" y2="-3.1" width="0.2" layer="25"/>
<wire x1="3.05" y1="-3.1" x2="-3.05" y2="-3.1" width="0.2" layer="25"/>
<circle x="-5.143" y="2.316" radius="0.0322" width="0.2" layer="25"/>
</package>
</packages>
</library>
</libraries>
<attributes>
</attributes>
<variantdefs>
</variantdefs>
<classes>
<class number="0" name="default" width="0.6" drill="0">
<clearance class="0" value="0.254"/>
</class>
</classes>
<designrules name="default">
<description language="de">&lt;b&gt;EAGLE Design Rules&lt;/b&gt;
&lt;p&gt;
Die Standard-Design-Rules sind so gewählt, dass sie für 
die meisten Anwendungen passen. Sollte ihre Platine 
besondere Anforderungen haben, treffen Sie die erforderlichen
Einstellungen hier und speichern die Design Rules unter 
einem neuen Namen ab.</description>
<description language="en">&lt;b&gt;EAGLE Design Rules&lt;/b&gt;
&lt;p&gt;
The default Design Rules have been set to cover
a wide range of applications. Your particular design
may have different requirements, so please make the
necessary adjustments and save your customized
design rules under a new name.</description>
<param name="layerSetup" value="(1*16)"/>
<param name="mtCopper" value="0.035mm 0.035mm 0.035mm 0.035mm 0.035mm 0.035mm 0.035mm 0.035mm 0.035mm 0.035mm 0.035mm 0.035mm 0.035mm 0.035mm 0.035mm 0.035mm"/>
<param name="mtIsolate" value="1.5mm 0.15mm 0.2mm 0.15mm 0.2mm 0.15mm 0.2mm 0.15mm 0.2mm 0.15mm 0.2mm 0.15mm 0.2mm 0.15mm 0.2mm"/>
<param name="mdWireWire" value="8mil"/>
<param name="mdWirePad" value="8mil"/>
<param name="mdWireVia" value="8mil"/>
<param name="mdPadPad" value="8mil"/>
<param name="mdPadVia" value="8mil"/>
<param name="mdViaVia" value="8mil"/>
<param name="mdSmdPad" value="8mil"/>
<param name="mdSmdVia" value="8mil"/>
<param name="mdSmdSmd" value="8mil"/>
<param name="mdViaViaSameLayer" value="8mil"/>
<param name="mnLayersViaInSmd" value="2"/>
<param name="mdCopperDimension" value="40mil"/>
<param name="mdDrill" value="8mil"/>
<param name="mdSmdStop" value="0mil"/>
<param name="msWidth" value="10mil"/>
<param name="msDrill" value="24mil"/>
<param name="msMicroVia" value="9.99mm"/>
<param name="msBlindViaRatio" value="0.5"/>
<param name="rvPadTop" value="0.25"/>
<param name="rvPadInner" value="0.25"/>
<param name="rvPadBottom" value="0.25"/>
<param name="rvViaOuter" value="0.25"/>
<param name="rvViaInner" value="0.25"/>
<param name="rvMicroViaOuter" value="0.25"/>
<param name="rvMicroViaInner" value="0.25"/>
<param name="rlMinPadTop" value="10mil"/>
<param name="rlMaxPadTop" value="20mil"/>
<param name="rlMinPadInner" value="10mil"/>
<param name="rlMaxPadInner" value="20mil"/>
<param name="rlMinPadBottom" value="10mil"/>
<param name="rlMaxPadBottom" value="20mil"/>
<param name="rlMinViaOuter" value="8mil"/>
<param name="rlMaxViaOuter" value="20mil"/>
<param name="rlMinViaInner" value="8mil"/>
<param name="rlMaxViaInner" value="20mil"/>
<param name="rlMinMicroViaOuter" value="4mil"/>
<param name="rlMaxMicroViaOuter" value="20mil"/>
<param name="rlMinMicroViaInner" value="4mil"/>
<param name="rlMaxMicroViaInner" value="20mil"/>
<param name="psTop" value="-1"/>
<param name="psBottom" value="-1"/>
<param name="psFirst" value="-1"/>
<param name="psElongationLong" value="100"/>
<param name="psElongationOffset" value="100"/>
<param name="mvStopFrame" value="1"/>
<param name="mvCreamFrame" value="0"/>
<param name="mlMinStopFrame" value="4mil"/>
<param name="mlMaxStopFrame" value="4mil"/>
<param name="mlMinCreamFrame" value="0mil"/>
<param name="mlMaxCreamFrame" value="0mil"/>
<param name="mlViaStopLimit" value="0mil"/>
<param name="srRoundness" value="0"/>
<param name="srMinRoundness" value="0mil"/>
<param name="srMaxRoundness" value="0mil"/>
<param name="slThermalIsolate" value="10mil"/>
<param name="slThermalsForVias" value="0"/>
<param name="dpMaxLengthDifference" value="10mm"/>
<param name="dpGapFactor" value="2.5"/>
<param name="checkGrid" value="0"/>
<param name="checkAngle" value="0"/>
<param name="checkFont" value="1"/>
<param name="checkRestrict" value="1"/>
<param name="useDiameter" value="13"/>
<param name="maxErrors" value="50"/>
</designrules>
<autorouter>
<pass name="Default">
<param name="RoutingGrid" value="0.125mm"/>
<param name="AutoGrid" value="1"/>
<param name="Efforts" value="2"/>
<param name="TopRouterVariant" value="1"/>
<param name="tpViaShape" value="round"/>
<param name="PrefDir.1" value="*"/>
<param name="PrefDir.2" value="0"/>
<param name="PrefDir.3" value="0"/>
<param name="PrefDir.4" value="0"/>
<param name="PrefDir.5" value="0"/>
<param name="PrefDir.6" value="0"/>
<param name="PrefDir.7" value="0"/>
<param name="PrefDir.8" value="0"/>
<param name="PrefDir.9" value="0"/>
<param name="PrefDir.10" value="0"/>
<param name="PrefDir.11" value="0"/>
<param name="PrefDir.12" value="0"/>
<param name="PrefDir.13" value="0"/>
<param name="PrefDir.14" value="0"/>
<param name="PrefDir.15" value="0"/>
<param name="PrefDir.16" value="-"/>
<param name="cfVia" value="8"/>
<param name="cfNonPref" value="5"/>
<param name="cfChangeDir" value="2"/>
<param name="cfOrthStep" value="2"/>
<param name="cfDiagStep" value="3"/>
<param name="cfExtdStep" value="0"/>
<param name="cfBonusStep" value="1"/>
<param name="cfMalusStep" value="1"/>
<param name="cfPadImpact" value="4"/>
<param name="cfSmdImpact" value="4"/>
<param name="cfBusImpact" value="0"/>
<param name="cfHugging" value="3"/>
<param name="cfAvoid" value="4"/>
<param name="cfPolygon" value="10"/>
<param name="cfBase.1" value="0"/>
<param name="cfBase.2" value="1"/>
<param name="cfBase.3" value="1"/>
<param name="cfBase.4" value="1"/>
<param name="cfBase.5" value="1"/>
<param name="cfBase.6" value="1"/>
<param name="cfBase.7" value="1"/>
<param name="cfBase.8" value="1"/>
<param name="cfBase.9" value="1"/>
<param name="cfBase.10" value="1"/>
<param name="cfBase.11" value="1"/>
<param name="cfBase.12" value="1"/>
<param name="cfBase.13" value="1"/>
<param name="cfBase.14" value="1"/>
<param name="cfBase.15" value="1"/>
<param name="cfBase.16" value="0"/>
<param name="mnVias" value="20"/>
<param name="mnSegments" value="9999"/>
<param name="mnExtdSteps" value="9999"/>
<param name="mnRipupLevel" value="10"/>
<param name="mnRipupSteps" value="100"/>
<param name="mnRipupTotal" value="100"/>
</pass>
<pass name="Follow-me" refer="Default" active="yes">
</pass>
<pass name="Busses" refer="Default" active="yes">
<param name="cfNonPref" value="4"/>
<param name="cfBusImpact" value="4"/>
<param name="cfHugging" value="0"/>
<param name="mnVias" value="0"/>
</pass>
<pass name="Route" refer="Default" active="yes">
</pass>
<pass name="Optimize1" refer="Default" active="yes">
<param name="cfVia" value="99"/>
<param name="cfExtdStep" value="10"/>
<param name="cfHugging" value="1"/>
<param name="mnExtdSteps" value="1"/>
<param name="mnRipupLevel" value="0"/>
</pass>
<pass name="Optimize2" refer="Optimize1" active="yes">
<param name="cfNonPref" value="0"/>
<param name="cfChangeDir" value="6"/>
<param name="cfExtdStep" value="0"/>
<param name="cfBonusStep" value="2"/>
<param name="cfMalusStep" value="2"/>
<param name="cfPadImpact" value="2"/>
<param name="cfSmdImpact" value="2"/>
<param name="cfHugging" value="0"/>
</pass>
<pass name="Optimize3" refer="Optimize2" active="yes">
<param name="cfChangeDir" value="8"/>
<param name="cfPadImpact" value="0"/>
<param name="cfSmdImpact" value="0"/>
</pass>
<pass name="Optimize4" refer="Optimize3" active="yes">
<param name="cfChangeDir" value="25"/>
</pass>
</autorouter>
<elements>
<element name="JP1" library="SparkFun-RF" package="XBEE-LOCK" value="" x="53.975" y="77.724" rot="R180">
<attribute name="PARTNO" value="888-XBP9B-DMUT-022" x="53.975" y="77.724" size="1.778" layer="27" rot="R180" display="off"/>
</element>
<element name="U$3" library="TinkerElectric" package="MODULE_1" value="AUTO_BUCK" x="17.78" y="78.994"/>
<element name="POWER" library="TinkerElectric" package="1X02_5MM" value="" x="44.45" y="33.274"/>
<element name="IO1" library="TinkerElectric" package="1X02_5MM" value="" x="54.61" y="33.274"/>
<element name="U$2" library="TinkerElectric" package="MODULE_1" value="OPTO_INPUT" x="17.78" y="43.434"/>
<element name="BTN" library="TinkerElectric" package="1X02_5MM" value="" x="64.77" y="33.274"/>
<element name="U$4" library="TinkerElectric" package="1554F" value="BOX1554F/G" x="38.735" y="45.974" rot="R90">
<attribute name="PARTNO" value="HMF1554F/G" x="38.735" y="45.974" size="1.778" layer="27" rot="R90" display="off"/>
</element>
<element name="JP2" library="SparkFun-Jumpers" package="SMT-JUMPER_2_NC_TRACE_SILK" value="UN-ISO-GND" x="17.272" y="46.99">
<attribute name="DNP" value="T" x="17.272" y="46.99" size="1.778" layer="27" display="off"/>
<attribute name="BOM" value="EXCLUDE" x="17.272" y="46.99" size="1.778" layer="27" display="off"/>
</element>
<element name="U$1" library="TinkerElectric" package="UNSEEN_ELEMENT" value="XBEE_HEADER" x="0" y="-8.89">
<attribute name="PARTNO" value="366" x="0" y="-8.89" size="1.778" layer="27" display="off"/>
</element>
<element name="U$5" library="TinkerElectric" package="UNSEEN_ELEMENT" value="XBEE_HEADER" x="0" y="-10.16">
<attribute name="PARTNO" value="366" x="0" y="-10.16" size="1.778" layer="27" display="off"/>
</element>
<element name="U$6" library="TinkerElectric" package="UNSEEN_ELEMENT" value="UFL to SMA Bulkhead Waterproof" x="0" y="-11.43"/>
<element name="U$7" library="TinkerElectric" package="UNSEEN_ELEMENT" value="1x5 Header" x="0" y="-12.7"/>
<element name="U$8" library="TinkerElectric" package="UNSEEN_ELEMENT" value="1x5 Header" x="0" y="-13.97"/>
<element name="U$9" library="TinkerElectric" package="UNSEEN_ELEMENT" value="1x5 Header" x="0" y="-15.24"/>
<element name="U$10" library="TinkerElectric" package="UNSEEN_ELEMENT" value="1x5 Header" x="0" y="-16.51"/>
<element name="JP3" library="SparkFun-Jumpers" package="SMT-JUMPER_3_1-NC_TRACE_SILK" value="5vs3.3" x="11.43" y="46.99" rot="R180"/>
<element name="JP4" library="SparkFun-Jumpers" package="SMT-JUMPER_2_NC_TRACE_SILK" value="XB_OPTO1" x="5.08" y="46.99"/>
<element name="U$11" library="adafruit" package="1X10-BIG" value="PINHD-1X10" x="68.58" y="66.04" rot="R90"/>
<element name="U$12" library="adafruit" package="1X10-BIG" value="PINHD-1X10" x="39.37" y="66.04" rot="R270"/>
<element name="S1" library="ADTSM65SV" package="ADTSM6XXV" value="ADTSM65SV" x="15.24" y="86.36">
<attribute name="DESCRIPTION" value="Tactile Switches 0.05A 12VDC Salmon 320gf, 8.5mm, SPST" x="15.24" y="86.36" size="1.778" layer="27" display="off"/>
<attribute name="ALLIED_NUMBER" value="" x="15.24" y="86.36" size="1.778" layer="27" display="off"/>
<attribute name="SUPPLIER_NAME" value="RS" x="15.24" y="86.36" size="1.778" layer="27" display="off"/>
<attribute name="MANUFACTURER_NAME" value="Apem" x="15.24" y="86.36" size="1.778" layer="27" display="off"/>
<attribute name="RS_PART_NUMBER" value="" x="15.24" y="86.36" size="1.778" layer="27" display="off"/>
<attribute name="3D_PACKAGE" value="" x="15.24" y="86.36" size="1.778" layer="27" display="off"/>
<attribute name="MANUFACTURER_PART_NUMBER" value="ADTSM65SV" x="15.24" y="86.36" size="1.778" layer="27" display="off"/>
<attribute name="OTHER_PART_NUMBER" value="" x="15.24" y="86.36" size="1.778" layer="27" display="off"/>
<attribute name="HEIGHT" value="mm" x="15.24" y="86.36" size="1.778" layer="27" display="off"/>
</element>
<element name="JP6" library="SparkFun-Jumpers" package="SMT-JUMPER_3_1-NC_TRACE_SILK" value="ASOvRST" x="24.13" y="46.99" rot="R180"/>
</elements>
<signals>
<signal name="GND">
<contactref element="JP1" pad="10"/>
<contactref element="U$3" pad="A5"/>
<contactref element="U$3" pad="A4"/>
<contactref element="U$3" pad="B1"/>
<contactref element="U$3" pad="B2"/>
<contactref element="POWER" pad="P$2"/>
<contactref element="U$2" pad="A5"/>
<contactref element="U$2" pad="B1"/>
<contactref element="BTN" pad="P$2"/>
<contactref element="JP2" pad="2"/>
<contactref element="U$11" pad="10"/>
<contactref element="S1" pad="3"/>
<wire x1="67.039" y1="76.006" x2="64.904" y2="76.006" width="0.6" layer="1"/>
<wire x1="68.32" y1="77.287" x2="67.039" y2="76.006" width="0.6" layer="1"/>
<wire x1="64.904" y1="76.006" x2="64.7972" y2="75.724" width="0.6" layer="1"/>
<wire x1="68.32" y1="77.287" x2="68.58" y2="77.47" width="0.6" layer="1"/>
<wire x1="10.84" y1="80.287" x2="10.84" y2="82.422" width="0.6" layer="1"/>
<wire x1="10.818" y1="77.725" x2="10.84" y2="80.287" width="0.6" layer="1"/>
<wire x1="18.184" y1="70.396" x2="10.818" y2="77.725" width="0.6" layer="1"/>
<wire x1="30.317" y1="70.455" x2="18.184" y2="70.396" width="0.6" layer="1"/>
<wire x1="10.84" y1="82.422" x2="11.265" y2="84.11" width="0.6" layer="1"/>
<wire x1="30.317" y1="70.455" x2="30.48" y2="70.104" width="0.6" layer="1"/>
<wire x1="30.317" y1="70.028" x2="30.317" y2="67.893" width="0.6" layer="1"/>
<wire x1="30.317" y1="67.893" x2="30.48" y2="67.564" width="0.6" layer="1"/>
<wire x1="30.317" y1="70.028" x2="30.48" y2="70.104" width="0.6" layer="1"/>
<wire x1="44.408" y1="76.006" x2="64.477" y2="76.006" width="0.6" layer="16"/>
<wire x1="41.419" y1="78.995" x2="44.408" y2="76.006" width="0.6" layer="16"/>
<wire x1="38.43" y1="78.995" x2="41.419" y2="78.995" width="0.6" layer="16"/>
<wire x1="33.733" y1="74.298" x2="38.43" y2="78.995" width="0.6" layer="16"/>
<wire x1="33.733" y1="73.444" x2="33.733" y2="74.298" width="0.6" layer="16"/>
<wire x1="30.744" y1="70.455" x2="33.733" y2="73.444" width="0.6" layer="16"/>
<wire x1="64.477" y1="76.006" x2="64.7972" y2="75.724" width="0.6" layer="16"/>
<wire x1="30.744" y1="70.455" x2="30.48" y2="70.104" width="0.6" layer="16"/>
<wire x1="5.124" y1="62.342" x2="5.124" y2="60.207" width="0.6" layer="1"/>
<wire x1="5.124" y1="60.207" x2="5.08" y2="59.944" width="0.6" layer="1"/>
<wire x1="5.124" y1="62.342" x2="5.08" y2="62.484" width="0.6" layer="1"/>
<wire x1="30.317" y1="34.587" x2="17.934" y2="46.97" width="0.6" layer="1"/>
<wire x1="17.934" y1="46.97" x2="17.78" y2="46.99" width="0.6" layer="1"/>
<wire x1="30.317" y1="34.587" x2="30.48" y2="34.544" width="0.6" layer="1"/>
<wire x1="20.923" y1="24.766" x2="5.124" y2="24.766" width="0.6" layer="16"/>
<wire x1="30.317" y1="34.16" x2="20.923" y2="24.766" width="0.6" layer="16"/>
<wire x1="5.124" y1="24.766" x2="5.08" y2="24.384" width="0.6" layer="16"/>
<wire x1="30.317" y1="34.16" x2="30.48" y2="34.544" width="0.6" layer="16"/>
<wire x1="5.978" y1="59.78" x2="5.124" y2="59.78" width="0.6" layer="1"/>
<wire x1="17.934" y1="47.824" x2="14.091" y2="51.667" width="0.6" layer="1"/>
<wire x1="14.091" y1="51.667" x2="5.978" y2="59.78" width="0.6" layer="1"/>
<wire x1="17.934" y1="47.397" x2="17.934" y2="47.824" width="0.6" layer="1"/>
<wire x1="5.124" y1="59.78" x2="5.08" y2="59.944" width="0.6" layer="1"/>
<wire x1="17.934" y1="47.397" x2="17.78" y2="46.99" width="0.6" layer="1"/>
<wire x1="47.397" y1="32.879" x2="49.105" y2="32.879" width="0.6" layer="16"/>
<wire x1="46.116" y1="31.598" x2="47.397" y2="32.879" width="0.6" layer="16"/>
<wire x1="33.306" y1="31.598" x2="46.116" y2="31.598" width="0.6" layer="16"/>
<wire x1="30.744" y1="34.16" x2="33.306" y2="31.598" width="0.6" layer="16"/>
<wire x1="49.105" y1="32.879" x2="49.45" y2="33.274" width="0.6" layer="16"/>
<wire x1="30.744" y1="34.16" x2="30.48" y2="34.544" width="0.6" layer="16"/>
<wire x1="67.466" y1="32.879" x2="69.601" y2="32.879" width="0.6" layer="1"/>
<wire x1="64.904" y1="30.317" x2="67.466" y2="32.879" width="0.6" layer="1"/>
<wire x1="52.094" y1="30.317" x2="64.904" y2="30.317" width="0.6" layer="1"/>
<wire x1="49.532" y1="32.879" x2="52.094" y2="30.317" width="0.6" layer="1"/>
<wire x1="69.601" y1="32.879" x2="69.77" y2="33.274" width="0.6" layer="1"/>
<wire x1="49.532" y1="32.879" x2="49.45" y2="33.274" width="0.6" layer="1"/>
<wire x1="14.518" y1="51.667" x2="30.317" y2="67.466" width="0.6" layer="1"/>
<wire x1="14.091" y1="51.667" x2="14.518" y2="51.667" width="0.6" layer="1"/>
<wire x1="30.317" y1="67.466" x2="30.48" y2="67.564" width="0.6" layer="1"/>
</signal>
<signal name="3.3V">
<contactref element="JP1" pad="1"/>
<contactref element="U$2" pad="B5"/>
<contactref element="U$2" pad="B4"/>
<contactref element="U$11" pad="1"/>
<contactref element="JP3" pad="3"/>
<wire x1="30.744" y1="26.901" x2="30.744" y2="24.766" width="0.6" layer="1"/>
<wire x1="30.744" y1="24.766" x2="30.48" y2="24.384" width="0.6" layer="1"/>
<wire x1="30.744" y1="26.901" x2="30.48" y2="26.924" width="0.6" layer="1"/>
<wire x1="68.32" y1="54.656" x2="65.331" y2="57.645" width="0.6" layer="1"/>
<wire x1="65.331" y1="57.645" x2="65.1528" y2="57.724" width="0.6" layer="1"/>
<wire x1="68.32" y1="54.656" x2="68.58" y2="54.61" width="0.6" layer="1"/>
<wire x1="30.48" y1="26.924" x2="26.416" y2="26.924" width="0.6" layer="1"/>
<wire x1="26.416" y1="26.924" x2="8.89" y2="44.45" width="0.6" layer="1"/>
<wire x1="8.89" y1="44.45" x2="8.89" y2="45.466" width="0.6" layer="1"/>
<wire x1="8.89" y1="45.466" x2="10.414" y2="46.99" width="0.6" layer="1"/>
<wire x1="30.744" y1="26.901" x2="68.811" y2="26.901" width="0.6" layer="1"/>
<wire x1="68.811" y1="26.901" x2="72.39" y2="30.48" width="0.6" layer="1"/>
<wire x1="72.39" y1="30.48" x2="72.39" y2="50.8" width="0.6" layer="1"/>
<wire x1="72.39" y1="50.8" x2="68.58" y2="54.61" width="0.6" layer="1"/>
</signal>
<signal name="TXO">
<contactref element="JP1" pad="3"/>
<contactref element="U$11" pad="3"/>
<wire x1="66.612" y1="61.488" x2="65.331" y2="61.488" width="0.6" layer="1"/>
<wire x1="68.32" y1="59.78" x2="66.612" y2="61.488" width="0.6" layer="1"/>
<wire x1="65.331" y1="61.488" x2="65.1528" y2="61.724" width="0.6" layer="1"/>
<wire x1="68.32" y1="59.78" x2="68.58" y2="59.69" width="0.6" layer="1"/>
</signal>
<signal name="RXI">
<contactref element="JP1" pad="2"/>
<contactref element="U$11" pad="2"/>
<wire x1="66.185" y1="59.353" x2="64.904" y2="59.353" width="0.6" layer="1"/>
<wire x1="68.32" y1="57.218" x2="66.185" y2="59.353" width="0.6" layer="1"/>
<wire x1="64.904" y1="59.353" x2="64.7972" y2="59.724" width="0.6" layer="1"/>
<wire x1="68.32" y1="57.218" x2="68.58" y2="57.15" width="0.6" layer="1"/>
</signal>
<signal name="VIN_FIRST">
<contactref element="U$3" pad="A1"/>
<contactref element="U$3" pad="A2"/>
<contactref element="POWER" pad="P$1"/>
<wire x1="5.124" y1="70.028" x2="5.124" y2="67.893" width="0.6" layer="1"/>
<wire x1="5.124" y1="67.893" x2="5.08" y2="67.564" width="0.6" layer="1"/>
<wire x1="5.124" y1="70.028" x2="5.08" y2="70.104" width="0.6" layer="1"/>
<wire x1="10.248" y1="67.466" x2="5.124" y2="67.466" width="0.6" layer="16"/>
<wire x1="44.408" y1="33.306" x2="10.248" y2="67.466" width="0.6" layer="16"/>
<wire x1="5.124" y1="67.466" x2="5.08" y2="67.564" width="0.6" layer="16"/>
<wire x1="44.408" y1="33.306" x2="44.45" y2="33.274" width="0.6" layer="16"/>
</signal>
<signal name="OPTO_IO1">
<contactref element="U$2" pad="A3"/>
<contactref element="JP4" pad="1"/>
<wire x1="4.572" y1="46.99" x2="3.81" y2="46.99" width="0.6" layer="1"/>
<wire x1="3.81" y1="46.99" x2="2.54" y2="45.72" width="0.6" layer="1"/>
<wire x1="2.54" y1="45.72" x2="2.54" y2="30.988" width="0.6" layer="1"/>
<wire x1="2.54" y1="30.988" x2="4.064" y2="29.464" width="0.6" layer="1"/>
<wire x1="4.064" y1="29.464" x2="5.08" y2="29.464" width="0.6" layer="1"/>
</signal>
<signal name="OPTO_EXT_IO">
<contactref element="U$2" pad="B2"/>
<contactref element="IO1" pad="P$1"/>
<wire x1="40.138" y1="32.025" x2="30.744" y2="32.025" width="0.6" layer="1"/>
<wire x1="44.408" y1="36.295" x2="40.138" y2="32.025" width="0.6" layer="1"/>
<wire x1="51.24" y1="36.295" x2="44.408" y2="36.295" width="0.6" layer="1"/>
<wire x1="54.229" y1="33.306" x2="51.24" y2="36.295" width="0.6" layer="1"/>
<wire x1="30.744" y1="32.025" x2="30.48" y2="32.004" width="0.6" layer="1"/>
<wire x1="54.229" y1="33.306" x2="54.61" y2="33.274" width="0.6" layer="1"/>
</signal>
<signal name="GND_BATT">
<contactref element="IO1" pad="P$2"/>
<contactref element="U$2" pad="B3"/>
<contactref element="JP2" pad="1"/>
<wire x1="16.653" y1="43.554" x2="16.653" y2="46.97" width="0.6" layer="1"/>
<wire x1="30.317" y1="29.89" x2="16.653" y2="43.554" width="0.6" layer="1"/>
<wire x1="16.653" y1="46.97" x2="16.764" y2="46.99" width="0.6" layer="1"/>
<wire x1="30.317" y1="29.89" x2="30.48" y2="29.464" width="0.6" layer="1"/>
<wire x1="57.218" y1="32.879" x2="59.353" y2="32.879" width="0.6" layer="16"/>
<wire x1="54.229" y1="29.89" x2="57.218" y2="32.879" width="0.6" layer="16"/>
<wire x1="30.744" y1="29.89" x2="54.229" y2="29.89" width="0.6" layer="16"/>
<wire x1="59.353" y1="32.879" x2="59.61" y2="33.274" width="0.6" layer="16"/>
<wire x1="30.744" y1="29.89" x2="30.48" y2="29.464" width="0.6" layer="16"/>
</signal>
<signal name="BTN">
<contactref element="BTN" pad="P$1"/>
<contactref element="JP6" pad="2"/>
<wire x1="24.13" y1="46.99" x2="24.13" y2="44.958" width="0.6" layer="1"/>
<wire x1="24.13" y1="44.958" x2="24.638" y2="44.45" width="0.6" layer="1"/>
<wire x1="24.638" y1="44.45" x2="55.88" y2="44.45" width="0.6" layer="1"/>
<wire x1="55.88" y1="44.45" x2="64.77" y2="35.56" width="0.6" layer="1"/>
<wire x1="64.77" y1="35.56" x2="64.77" y2="33.274" width="0.6" layer="1"/>
</signal>
<signal name="SLEEP_XBEE">
<contactref element="JP1" pad="9"/>
<contactref element="U$11" pad="9"/>
<wire x1="67.466" y1="73.871" x2="65.331" y2="73.871" width="0.6" layer="1"/>
<wire x1="68.32" y1="74.725" x2="67.466" y2="73.871" width="0.6" layer="1"/>
<wire x1="65.331" y1="73.871" x2="65.1528" y2="73.724" width="0.6" layer="1"/>
<wire x1="68.32" y1="74.725" x2="68.58" y2="74.93" width="0.6" layer="1"/>
</signal>
<signal name="SLEEP_MICRO">
<contactref element="JP1" pad="13"/>
<contactref element="U$12" pad="3"/>
<wire x1="40.138" y1="71.736" x2="42.7" y2="71.736" width="0.6" layer="1"/>
<wire x1="39.711" y1="72.163" x2="40.138" y2="71.736" width="0.6" layer="1"/>
<wire x1="42.7" y1="71.736" x2="42.7972" y2="71.724" width="0.6" layer="1"/>
<wire x1="39.711" y1="72.163" x2="39.37" y2="72.39" width="0.6" layer="1"/>
</signal>
<signal name="DIO3">
<contactref element="JP1" pad="17"/>
<contactref element="U$12" pad="7"/>
<contactref element="JP4" pad="2"/>
<wire x1="40.992" y1="63.623" x2="42.7" y2="63.623" width="0.6" layer="1"/>
<wire x1="39.711" y1="62.342" x2="40.992" y2="63.623" width="0.6" layer="1"/>
<wire x1="42.7" y1="63.623" x2="42.7972" y2="63.724" width="0.6" layer="1"/>
<wire x1="39.711" y1="62.342" x2="39.37" y2="62.23" width="0.6" layer="1"/>
<wire x1="5.588" y1="46.99" x2="7.62" y2="46.99" width="0.6" layer="1"/>
<wire x1="7.62" y1="46.99" x2="8.89" y2="48.26" width="0.6" layer="1"/>
<wire x1="8.89" y1="48.26" x2="8.89" y2="52.07" width="0.6" layer="1"/>
<wire x1="8.89" y1="52.07" x2="2.54" y2="58.42" width="0.6" layer="1"/>
<wire x1="2.54" y1="58.42" x2="2.54" y2="72.39" width="0.6" layer="1"/>
<wire x1="2.54" y1="72.39" x2="3.81" y2="73.66" width="0.6" layer="1"/>
<wire x1="3.81" y1="73.66" x2="10.16" y2="73.66" width="0.6" layer="1"/>
<wire x1="10.16" y1="73.66" x2="21.59" y2="62.23" width="0.6" layer="1"/>
<via x="21.59" y="62.23" extent="1-16" drill="0.6096" shape="square"/>
<wire x1="21.59" y1="62.23" x2="29.21" y2="54.61" width="0.6" layer="16"/>
<wire x1="29.21" y1="54.61" x2="30.48" y2="54.61" width="0.6" layer="16"/>
<wire x1="30.48" y1="54.61" x2="38.1" y2="62.23" width="0.6" layer="16"/>
<wire x1="38.1" y1="62.23" x2="39.37" y2="62.23" width="0.6" layer="16"/>
</signal>
<signal name="ASSOCIATE_XB">
<contactref element="JP1" pad="20"/>
<contactref element="U$12" pad="10"/>
<wire x1="39.711" y1="54.229" x2="43.127" y2="57.645" width="0.6" layer="1"/>
<wire x1="43.127" y1="57.645" x2="43.1528" y2="57.724" width="0.6" layer="1"/>
<wire x1="39.711" y1="54.229" x2="39.37" y2="54.61" width="0.6" layer="1"/>
<contactref element="S1" pad="2"/>
<wire x1="19.215" y1="88.61" x2="38.39" y2="88.61" width="0.6" layer="1"/>
<wire x1="38.39" y1="88.61" x2="46.99" y2="80.01" width="0.6" layer="1"/>
<wire x1="46.99" y1="80.01" x2="46.99" y2="59.182" width="0.6" layer="1"/>
<wire x1="46.99" y1="59.182" x2="45.466" y2="57.658" width="0.6" layer="1"/>
<wire x1="45.466" y1="57.658" x2="43.2188" y2="57.658" width="0.6" layer="1"/>
<wire x1="43.2188" y1="57.658" x2="43.1528" y2="57.724" width="0.6" layer="1"/>
<contactref element="JP6" pad="3"/>
<wire x1="39.37" y1="54.61" x2="28.448" y2="54.61" width="0.6" layer="1"/>
<wire x1="28.448" y1="54.61" x2="23.114" y2="49.276" width="0.6" layer="1"/>
<wire x1="23.114" y1="49.276" x2="23.114" y2="46.99" width="0.6" layer="1"/>
</signal>
<signal name="BUCK_OUTPUT">
<contactref element="U$3" pad="B4"/>
<contactref element="U$3" pad="B5"/>
<contactref element="JP3" pad="2"/>
<wire x1="30.317" y1="62.342" x2="30.317" y2="60.207" width="0.6" layer="1"/>
<wire x1="30.317" y1="60.207" x2="30.48" y2="59.944" width="0.6" layer="1"/>
<wire x1="30.317" y1="62.342" x2="30.48" y2="62.484" width="0.6" layer="1"/>
<wire x1="30.48" y1="59.944" x2="25.654" y2="59.944" width="0.6" layer="1"/>
<wire x1="25.654" y1="59.944" x2="17.78" y2="52.07" width="0.6" layer="1"/>
<via x="17.78" y="52.07" extent="1-16" drill="0.6096" shape="square"/>
<wire x1="17.78" y1="52.07" x2="17.78" y2="50.8" width="0.6" layer="16"/>
<wire x1="17.78" y1="50.8" x2="15.24" y2="48.26" width="0.6" layer="16"/>
<via x="15.24" y="48.26" extent="1-16" drill="0.6096" shape="square"/>
<wire x1="15.24" y1="48.26" x2="12.7" y2="50.8" width="0.6" layer="1"/>
<wire x1="12.7" y1="50.8" x2="11.43" y2="49.53" width="0.6" layer="1"/>
<wire x1="11.43" y1="49.53" x2="11.43" y2="46.99" width="0.6" layer="1"/>
</signal>
<signal name="N$5">
<contactref element="JP1" pad="19"/>
<contactref element="U$12" pad="9"/>
<wire x1="41.846" y1="59.353" x2="42.7" y2="59.353" width="0.6" layer="1"/>
<wire x1="39.711" y1="57.218" x2="41.846" y2="59.353" width="0.6" layer="1"/>
<wire x1="42.7" y1="59.353" x2="42.7972" y2="59.724" width="0.6" layer="1"/>
<wire x1="39.711" y1="57.218" x2="39.37" y2="57.15" width="0.6" layer="1"/>
</signal>
<signal name="N$6">
<contactref element="JP1" pad="18"/>
<contactref element="U$12" pad="8"/>
<wire x1="41.419" y1="61.488" x2="43.127" y2="61.488" width="0.6" layer="1"/>
<wire x1="39.711" y1="59.78" x2="41.419" y2="61.488" width="0.6" layer="1"/>
<wire x1="43.127" y1="61.488" x2="43.1528" y2="61.724" width="0.6" layer="1"/>
<wire x1="39.711" y1="59.78" x2="39.37" y2="59.69" width="0.6" layer="1"/>
</signal>
<signal name="N$7">
<contactref element="U$11" pad="4"/>
<contactref element="JP1" pad="4"/>
<wire x1="67.039" y1="63.623" x2="64.904" y2="63.623" width="0.6" layer="1"/>
<wire x1="68.32" y1="62.342" x2="67.039" y2="63.623" width="0.6" layer="1"/>
<wire x1="64.904" y1="63.623" x2="64.7972" y2="63.724" width="0.6" layer="1"/>
<wire x1="68.32" y1="62.342" x2="68.58" y2="62.23" width="0.6" layer="1"/>
</signal>
<signal name="N$9">
<contactref element="U$11" pad="6"/>
<contactref element="JP1" pad="6"/>
<wire x1="68.32" y1="67.466" x2="64.904" y2="67.466" width="0.6" layer="1"/>
<wire x1="64.904" y1="67.466" x2="64.7972" y2="67.724" width="0.6" layer="1"/>
<wire x1="68.32" y1="67.466" x2="68.58" y2="67.31" width="0.6" layer="1"/>
</signal>
<signal name="N$10">
<contactref element="JP1" pad="7"/>
<contactref element="U$11" pad="7"/>
<wire x1="68.32" y1="69.601" x2="65.331" y2="69.601" width="0.6" layer="1"/>
<wire x1="65.331" y1="69.601" x2="65.1528" y2="69.724" width="0.6" layer="1"/>
<wire x1="68.32" y1="69.601" x2="68.58" y2="69.85" width="0.6" layer="1"/>
</signal>
<signal name="N$11">
<contactref element="U$11" pad="8"/>
<contactref element="JP1" pad="8"/>
<wire x1="67.893" y1="71.736" x2="64.904" y2="71.736" width="0.6" layer="1"/>
<wire x1="68.32" y1="72.163" x2="67.893" y2="71.736" width="0.6" layer="1"/>
<wire x1="64.904" y1="71.736" x2="64.7972" y2="71.724" width="0.6" layer="1"/>
<wire x1="68.32" y1="72.163" x2="68.58" y2="72.39" width="0.6" layer="1"/>
</signal>
<signal name="N$12">
<contactref element="JP1" pad="12"/>
<contactref element="U$12" pad="2"/>
<wire x1="40.565" y1="73.871" x2="43.127" y2="73.871" width="0.6" layer="1"/>
<wire x1="39.711" y1="74.725" x2="40.565" y2="73.871" width="0.6" layer="1"/>
<wire x1="43.127" y1="73.871" x2="43.1528" y2="73.724" width="0.6" layer="1"/>
<wire x1="39.711" y1="74.725" x2="39.37" y2="74.93" width="0.6" layer="1"/>
</signal>
<signal name="N$13">
<contactref element="U$12" pad="1"/>
<contactref element="JP1" pad="11"/>
<wire x1="40.992" y1="76.006" x2="42.7" y2="76.006" width="0.6" layer="1"/>
<wire x1="39.711" y1="77.287" x2="40.992" y2="76.006" width="0.6" layer="1"/>
<wire x1="42.7" y1="76.006" x2="42.7972" y2="75.724" width="0.6" layer="1"/>
<wire x1="39.711" y1="77.287" x2="39.37" y2="77.47" width="0.6" layer="1"/>
</signal>
<signal name="N$14">
<contactref element="JP1" pad="14"/>
<contactref element="U$12" pad="4"/>
<wire x1="39.711" y1="69.601" x2="43.127" y2="69.601" width="0.6" layer="1"/>
<wire x1="43.127" y1="69.601" x2="43.1528" y2="69.724" width="0.6" layer="1"/>
<wire x1="39.711" y1="69.601" x2="39.37" y2="69.85" width="0.6" layer="1"/>
</signal>
<signal name="N$15">
<contactref element="U$12" pad="5"/>
<contactref element="JP1" pad="15"/>
<wire x1="39.711" y1="67.466" x2="42.7" y2="67.466" width="0.6" layer="1"/>
<wire x1="42.7" y1="67.466" x2="42.7972" y2="67.724" width="0.6" layer="1"/>
<wire x1="39.711" y1="67.466" x2="39.37" y2="67.31" width="0.6" layer="1"/>
</signal>
<signal name="N$16">
<contactref element="JP1" pad="16"/>
<contactref element="U$12" pad="6"/>
<wire x1="40.138" y1="65.331" x2="43.127" y2="65.331" width="0.6" layer="1"/>
<wire x1="39.711" y1="64.904" x2="40.138" y2="65.331" width="0.6" layer="1"/>
<wire x1="43.127" y1="65.331" x2="43.1528" y2="65.724" width="0.6" layer="1"/>
<wire x1="39.711" y1="64.904" x2="39.37" y2="64.77" width="0.6" layer="1"/>
</signal>
<signal name="5V">
<contactref element="JP3" pad="1"/>
</signal>
<signal name="RESET">
<contactref element="JP1" pad="5"/>
<contactref element="U$11" pad="5"/>
<wire x1="46.99" y1="46.99" x2="59.69" y2="59.69" width="0.6" layer="1"/>
<wire x1="59.69" y1="59.69" x2="59.69" y2="63.5" width="0.6" layer="1"/>
<wire x1="59.69" y1="63.5" x2="61.976" y2="65.786" width="0.6" layer="1"/>
<wire x1="61.976" y1="65.786" x2="65.0908" y2="65.786" width="0.6" layer="1"/>
<wire x1="65.0908" y1="65.786" x2="65.1528" y2="65.724" width="0.6" layer="1"/>
<wire x1="65.1528" y1="65.724" x2="66.864" y2="65.724" width="0.6" layer="1"/>
<wire x1="66.864" y1="65.724" x2="67.564" y2="65.024" width="0.6" layer="1"/>
<wire x1="67.564" y1="65.024" x2="68.326" y2="65.024" width="0.6" layer="1"/>
<wire x1="68.326" y1="65.024" x2="68.58" y2="64.77" width="0.6" layer="1"/>
<contactref element="JP6" pad="1"/>
<wire x1="25.146" y1="46.99" x2="46.99" y2="46.99" width="0.6" layer="1"/>
</signal>
</signals>
<errors>
<approved hash="3,1,57f3f98df9e1579f"/>
<approved hash="3,1,57f3f98df9e1579f"/>
<approved hash="3,1,69fdfb83fbef6991"/>
<approved hash="3,1,69fdfb83fbef6991"/>
<approved hash="3,1,67f2898c89e3679d"/>
<approved hash="3,1,67f2898c89e3679d"/>
<approved hash="3,1,71f21b8c1be3719d"/>
<approved hash="3,1,71f21b8c1be3719d"/>
<approved hash="18,29,d3449a9f9a9fd344"/>
<approved hash="18,29,f94fa166a166f94f"/>
<approved hash="18,29,4eea183118314eea"/>
<approved hash="18,29,64e123c823c864e1"/>
<approved hash="18,29,0058c840c930e730"/>
<approved hash="18,29,bad8d29b007d7fa7"/>
<approved hash="18,29,f9aeed09441e16af"/>
<approved hash="18,29,0432a4b77a24151c"/>
<approved hash="18,29,6334c168cf89998d"/>
<approved hash="19,1,229f61d77da32be1"/>
<approved hash="19,1,5dcf4a3f4458a078"/>
<approved hash="19,1,a2eda81fab54a1a6"/>
<approved hash="19,1,d4623e5856c64f2c"/>
<approved hash="19,1,fb182ea431daf16c"/>
<approved hash="19,1,32970ddf11a83bea"/>
<approved hash="19,1,d868cfb6f551115f"/>
<approved hash="19,1,d0e319111a56d3a4"/>
<approved hash="19,1,66ce8cd7d6c9cf00"/>
<approved hash="19,1,91fc1f71a0477a20"/>
<approved hash="19,1,e8db4d3eff7b3936"/>
<approved hash="19,1,cd8fbca17845ac4a"/>
<approved hash="19,1,f589e234f453103e"/>
<approved hash="19,1,c2ef181d1b56c1a4"/>
<approved hash="19,1,5c2fb659d6c7cf61"/>
<approved hash="19,1,5b196e1c9935f70a"/>
<approved hash="19,1,e6f37fd7b35a53da"/>
<approved hash="19,1,2e76b44745798af1"/>
<approved hash="5,1,608c943ba9b1c5ab"/>
<approved hash="19,1,f336e4b2f9551d01"/>
<approved hash="19,1,5038a14d529eacc0"/>
<approved hash="19,1,dee329112a46ddb4"/>
<approved hash="19,1,5b88b1dbfac5e346"/>
<approved hash="19,1,90e69c504253e593"/>
</errors>
</board>
</drawing>
</eagle>
